<?xml version="1.0" encoding="utf-8" standalone="no"?>
<!DOCTYPE svg PUBLIC "-//W3C//DTD SVG 1.1//EN"
  "http://www.w3.org/Graphics/SVG/1.1/DTD/svg11.dtd">
<svg xmlns:xlink="http://www.w3.org/1999/xlink" width="460.8pt" height="345.6pt" viewBox="0 0 460.8 345.6" xmlns="http://www.w3.org/2000/svg" version="1.1">
 <metadata>
  <rdf:RDF xmlns:dc="http://purl.org/dc/elements/1.1/" xmlns:cc="http://creativecommons.org/ns#" xmlns:rdf="http://www.w3.org/1999/02/22-rdf-syntax-ns#">
   <cc:Work>
    <dc:type rdf:resource="http://purl.org/dc/dcmitype/StillImage"/>
    <dc:date>2022-11-27T15:43:21.452861</dc:date>
    <dc:format>image/svg+xml</dc:format>
    <dc:creator>
     <cc:Agent>
      <dc:title>Matplotlib v3.6.0, https://matplotlib.org/</dc:title>
     </cc:Agent>
    </dc:creator>
   </cc:Work>
  </rdf:RDF>
 </metadata>
 <defs>
  <style type="text/css">*{stroke-linejoin: round; stroke-linecap: butt}</style>
 </defs>
 <g id="figure_1">
  <g id="patch_1">
   <path d="M 0 345.6 
L 460.8 345.6 
L 460.8 0 
L 0 0 
z
" style="fill: #ffffff"/>
  </g>
  <g id="axes_1">
   <g id="patch_2">
    <path d="M 47.84198 302.019855 
L 448.92 302.019855 
L 448.92 27.012395 
L 47.84198 27.012395 
z
" style="fill: #ffffff"/>
   </g>
   <g id="matplotlib.axis_1">
    <g id="xtick_1">
     <g id="line2d_1">
      <path d="M 66.063684 302.019855 
L 66.063684 27.012395 
" clip-path="url(#p9ace5cf9b6)" style="fill: none; stroke: #b0b0b0; stroke-width: 0.8; stroke-linecap: square"/>
     </g>
     <g id="line2d_2">
      <defs>
       <path id="m772993e6f5" d="M 0 0 
L 0 3.5 
" style="stroke: #000000; stroke-width: 0.8"/>
      </defs>
      <g>
       <use xlink:href="#m772993e6f5" x="66.063684" y="302.019855" style="stroke: #000000; stroke-width: 0.8"/>
      </g>
     </g>
     <g id="text_1">
      <!-- $\mathdefault{0.00}$ -->
      <g transform="translate(56.322412 316.630201) scale(0.11 -0.11)">
       <defs>
        <path id="CMR17-30" d="M 2688 2025 
C 2688 2416 2682 3080 2413 3591 
C 2176 4039 1798 4198 1466 4198 
C 1158 4198 768 4058 525 3597 
C 269 3118 243 2524 243 2025 
C 243 1661 250 1106 448 619 
C 723 -39 1216 -128 1466 -128 
C 1760 -128 2208 -7 2470 600 
C 2662 1042 2688 1559 2688 2025 
z
M 1466 -26 
C 1056 -26 813 325 723 812 
C 653 1188 653 1738 653 2096 
C 653 2588 653 2997 736 3387 
C 858 3929 1216 4096 1466 4096 
C 1728 4096 2067 3923 2189 3400 
C 2272 3036 2278 2607 2278 2096 
C 2278 1680 2278 1169 2202 792 
C 2067 95 1690 -26 1466 -26 
z
" transform="scale(0.015625)"/>
        <path id="CMMI12-3a" d="M 1178 307 
C 1178 492 1024 619 870 619 
C 685 619 557 466 557 313 
C 557 128 710 0 864 0 
C 1050 0 1178 153 1178 307 
z
" transform="scale(0.015625)"/>
       </defs>
       <use xlink:href="#CMR17-30" transform="scale(0.996264)"/>
       <use xlink:href="#CMMI12-3a" transform="translate(45.690477 0) scale(0.996264)"/>
       <use xlink:href="#CMR17-30" transform="translate(72.787654 0) scale(0.996264)"/>
       <use xlink:href="#CMR17-30" transform="translate(118.478131 0) scale(0.996264)"/>
      </g>
     </g>
    </g>
    <g id="xtick_2">
     <g id="line2d_3">
      <path d="M 111.641871 302.019855 
L 111.641871 27.012395 
" clip-path="url(#p9ace5cf9b6)" style="fill: none; stroke: #b0b0b0; stroke-width: 0.8; stroke-linecap: square"/>
     </g>
     <g id="line2d_4">
      <g>
       <use xlink:href="#m772993e6f5" x="111.641871" y="302.019855" style="stroke: #000000; stroke-width: 0.8"/>
      </g>
     </g>
     <g id="text_2">
      <!-- $\mathdefault{0.25}$ -->
      <g transform="translate(101.900599 316.630201) scale(0.11 -0.11)">
       <defs>
        <path id="CMR17-32" d="M 2669 989 
L 2554 989 
C 2490 536 2438 459 2413 420 
C 2381 369 1920 369 1830 369 
L 602 369 
C 832 619 1280 1072 1824 1597 
C 2214 1967 2669 2402 2669 3035 
C 2669 3790 2067 4224 1395 4224 
C 691 4224 262 3604 262 3030 
C 262 2780 448 2748 525 2748 
C 589 2748 781 2787 781 3010 
C 781 3207 614 3264 525 3264 
C 486 3264 448 3258 422 3245 
C 544 3790 915 4058 1306 4058 
C 1862 4058 2227 3617 2227 3035 
C 2227 2479 1901 2000 1536 1584 
L 262 146 
L 262 0 
L 2515 0 
L 2669 989 
z
" transform="scale(0.015625)"/>
        <path id="CMR17-35" d="M 730 3692 
C 794 3666 1056 3584 1325 3584 
C 1920 3584 2246 3911 2432 4100 
C 2432 4157 2432 4192 2394 4192 
C 2387 4192 2374 4192 2323 4163 
C 2099 4058 1837 3973 1517 3973 
C 1325 3973 1037 3999 723 4139 
C 653 4171 640 4171 634 4171 
C 602 4171 595 4164 595 4037 
L 595 2203 
C 595 2089 595 2057 659 2057 
C 691 2057 704 2070 736 2114 
C 941 2401 1222 2522 1542 2522 
C 1766 2522 2246 2382 2246 1289 
C 2246 1085 2246 715 2054 421 
C 1894 159 1645 25 1370 25 
C 947 25 518 320 403 814 
C 429 807 480 795 506 795 
C 589 795 749 840 749 1038 
C 749 1210 627 1280 506 1280 
C 358 1280 262 1190 262 1011 
C 262 454 704 -128 1382 -128 
C 2042 -128 2669 440 2669 1264 
C 2669 2030 2170 2624 1549 2624 
C 1222 2624 947 2503 730 2274 
L 730 3692 
z
" transform="scale(0.015625)"/>
       </defs>
       <use xlink:href="#CMR17-30" transform="scale(0.996264)"/>
       <use xlink:href="#CMMI12-3a" transform="translate(45.690477 0) scale(0.996264)"/>
       <use xlink:href="#CMR17-32" transform="translate(72.787654 0) scale(0.996264)"/>
       <use xlink:href="#CMR17-35" transform="translate(118.478131 0) scale(0.996264)"/>
      </g>
     </g>
    </g>
    <g id="xtick_3">
     <g id="line2d_5">
      <path d="M 157.220058 302.019855 
L 157.220058 27.012395 
" clip-path="url(#p9ace5cf9b6)" style="fill: none; stroke: #b0b0b0; stroke-width: 0.8; stroke-linecap: square"/>
     </g>
     <g id="line2d_6">
      <g>
       <use xlink:href="#m772993e6f5" x="157.220058" y="302.019855" style="stroke: #000000; stroke-width: 0.8"/>
      </g>
     </g>
     <g id="text_3">
      <!-- $\mathdefault{0.50}$ -->
      <g transform="translate(147.478786 316.630201) scale(0.11 -0.11)">
       <use xlink:href="#CMR17-30" transform="scale(0.996264)"/>
       <use xlink:href="#CMMI12-3a" transform="translate(45.690477 0) scale(0.996264)"/>
       <use xlink:href="#CMR17-35" transform="translate(72.787654 0) scale(0.996264)"/>
       <use xlink:href="#CMR17-30" transform="translate(118.478131 0) scale(0.996264)"/>
      </g>
     </g>
    </g>
    <g id="xtick_4">
     <g id="line2d_7">
      <path d="M 202.798245 302.019855 
L 202.798245 27.012395 
" clip-path="url(#p9ace5cf9b6)" style="fill: none; stroke: #b0b0b0; stroke-width: 0.8; stroke-linecap: square"/>
     </g>
     <g id="line2d_8">
      <g>
       <use xlink:href="#m772993e6f5" x="202.798245" y="302.019855" style="stroke: #000000; stroke-width: 0.8"/>
      </g>
     </g>
     <g id="text_4">
      <!-- $\mathdefault{0.75}$ -->
      <g transform="translate(193.056973 316.630201) scale(0.11 -0.11)">
       <defs>
        <path id="CMR17-37" d="M 2886 3941 
L 2886 4081 
L 1382 4081 
C 634 4081 621 4165 595 4288 
L 480 4288 
L 294 3094 
L 410 3094 
C 429 3215 474 3540 550 3661 
C 589 3712 1062 3712 1171 3712 
L 2579 3712 
L 1869 2661 
C 1395 1954 1069 999 1069 165 
C 1069 89 1069 -128 1299 -128 
C 1530 -128 1530 89 1530 171 
L 1530 465 
C 1530 1508 1709 2196 2003 2636 
L 2886 3941 
z
" transform="scale(0.015625)"/>
       </defs>
       <use xlink:href="#CMR17-30" transform="scale(0.996264)"/>
       <use xlink:href="#CMMI12-3a" transform="translate(45.690477 0) scale(0.996264)"/>
       <use xlink:href="#CMR17-37" transform="translate(72.787654 0) scale(0.996264)"/>
       <use xlink:href="#CMR17-35" transform="translate(118.478131 0) scale(0.996264)"/>
      </g>
     </g>
    </g>
    <g id="xtick_5">
     <g id="line2d_9">
      <path d="M 248.376432 302.019855 
L 248.376432 27.012395 
" clip-path="url(#p9ace5cf9b6)" style="fill: none; stroke: #b0b0b0; stroke-width: 0.8; stroke-linecap: square"/>
     </g>
     <g id="line2d_10">
      <g>
       <use xlink:href="#m772993e6f5" x="248.376432" y="302.019855" style="stroke: #000000; stroke-width: 0.8"/>
      </g>
     </g>
     <g id="text_5">
      <!-- $\mathdefault{1.00}$ -->
      <g transform="translate(238.635161 316.630201) scale(0.11 -0.11)">
       <defs>
        <path id="CMR17-31" d="M 1702 4058 
C 1702 4192 1696 4192 1606 4192 
C 1357 3916 979 3827 621 3827 
C 602 3827 570 3827 563 3808 
C 557 3795 557 3782 557 3648 
C 755 3648 1088 3686 1344 3839 
L 1344 461 
C 1344 236 1331 160 781 160 
L 589 160 
L 589 0 
C 896 0 1216 0 1523 0 
C 1830 0 2150 0 2458 0 
L 2458 160 
L 2266 160 
C 1715 160 1702 230 1702 458 
L 1702 4058 
z
" transform="scale(0.015625)"/>
       </defs>
       <use xlink:href="#CMR17-31" transform="scale(0.996264)"/>
       <use xlink:href="#CMMI12-3a" transform="translate(45.690477 0) scale(0.996264)"/>
       <use xlink:href="#CMR17-30" transform="translate(72.787654 0) scale(0.996264)"/>
       <use xlink:href="#CMR17-30" transform="translate(118.478131 0) scale(0.996264)"/>
      </g>
     </g>
    </g>
    <g id="xtick_6">
     <g id="line2d_11">
      <path d="M 293.954619 302.019855 
L 293.954619 27.012395 
" clip-path="url(#p9ace5cf9b6)" style="fill: none; stroke: #b0b0b0; stroke-width: 0.8; stroke-linecap: square"/>
     </g>
     <g id="line2d_12">
      <g>
       <use xlink:href="#m772993e6f5" x="293.954619" y="302.019855" style="stroke: #000000; stroke-width: 0.8"/>
      </g>
     </g>
     <g id="text_6">
      <!-- $\mathdefault{1.25}$ -->
      <g transform="translate(284.213348 316.630201) scale(0.11 -0.11)">
       <use xlink:href="#CMR17-31" transform="scale(0.996264)"/>
       <use xlink:href="#CMMI12-3a" transform="translate(45.690477 0) scale(0.996264)"/>
       <use xlink:href="#CMR17-32" transform="translate(72.787654 0) scale(0.996264)"/>
       <use xlink:href="#CMR17-35" transform="translate(118.478131 0) scale(0.996264)"/>
      </g>
     </g>
    </g>
    <g id="xtick_7">
     <g id="line2d_13">
      <path d="M 339.532807 302.019855 
L 339.532807 27.012395 
" clip-path="url(#p9ace5cf9b6)" style="fill: none; stroke: #b0b0b0; stroke-width: 0.8; stroke-linecap: square"/>
     </g>
     <g id="line2d_14">
      <g>
       <use xlink:href="#m772993e6f5" x="339.532807" y="302.019855" style="stroke: #000000; stroke-width: 0.8"/>
      </g>
     </g>
     <g id="text_7">
      <!-- $\mathdefault{1.50}$ -->
      <g transform="translate(329.791535 316.630201) scale(0.11 -0.11)">
       <use xlink:href="#CMR17-31" transform="scale(0.996264)"/>
       <use xlink:href="#CMMI12-3a" transform="translate(45.690477 0) scale(0.996264)"/>
       <use xlink:href="#CMR17-35" transform="translate(72.787654 0) scale(0.996264)"/>
       <use xlink:href="#CMR17-30" transform="translate(118.478131 0) scale(0.996264)"/>
      </g>
     </g>
    </g>
    <g id="xtick_8">
     <g id="line2d_15">
      <path d="M 385.110994 302.019855 
L 385.110994 27.012395 
" clip-path="url(#p9ace5cf9b6)" style="fill: none; stroke: #b0b0b0; stroke-width: 0.8; stroke-linecap: square"/>
     </g>
     <g id="line2d_16">
      <g>
       <use xlink:href="#m772993e6f5" x="385.110994" y="302.019855" style="stroke: #000000; stroke-width: 0.8"/>
      </g>
     </g>
     <g id="text_8">
      <!-- $\mathdefault{1.75}$ -->
      <g transform="translate(375.369722 316.630201) scale(0.11 -0.11)">
       <use xlink:href="#CMR17-31" transform="scale(0.996264)"/>
       <use xlink:href="#CMMI12-3a" transform="translate(45.690477 0) scale(0.996264)"/>
       <use xlink:href="#CMR17-37" transform="translate(72.787654 0) scale(0.996264)"/>
       <use xlink:href="#CMR17-35" transform="translate(118.478131 0) scale(0.996264)"/>
      </g>
     </g>
    </g>
    <g id="xtick_9">
     <g id="line2d_17">
      <path d="M 430.689181 302.019855 
L 430.689181 27.012395 
" clip-path="url(#p9ace5cf9b6)" style="fill: none; stroke: #b0b0b0; stroke-width: 0.8; stroke-linecap: square"/>
     </g>
     <g id="line2d_18">
      <g>
       <use xlink:href="#m772993e6f5" x="430.689181" y="302.019855" style="stroke: #000000; stroke-width: 0.8"/>
      </g>
     </g>
     <g id="text_9">
      <!-- $\mathdefault{2.00}$ -->
      <g transform="translate(420.947909 316.630201) scale(0.11 -0.11)">
       <use xlink:href="#CMR17-32" transform="scale(0.996264)"/>
       <use xlink:href="#CMMI12-3a" transform="translate(45.690477 0) scale(0.996264)"/>
       <use xlink:href="#CMR17-30" transform="translate(72.787654 0) scale(0.996264)"/>
       <use xlink:href="#CMR17-30" transform="translate(118.478131 0) scale(0.996264)"/>
      </g>
     </g>
    </g>
    <g id="text_10">
     <!-- Frecuencia [Hz] -->
     <g transform="translate(212.939509 330.980274) scale(0.11 -0.11)">
      <defs>
       <path id="CMSS17-46" d="M 2918 1984 
L 2918 2373 
L 1101 2373 
L 1101 3968 
L 1882 3968 
C 1958 3968 2035 3968 2112 3968 
L 3168 3968 
L 3168 4375 
L 563 4375 
L 563 -32 
L 1101 -32 
L 1101 1984 
L 2918 1984 
z
" transform="scale(0.015625)"/>
       <path id="CMSS17-72" d="M 954 1363 
C 954 1965 1395 2368 1958 2368 
L 1958 2789 
C 1549 2789 1165 2585 934 2253 
L 934 2758 
L 480 2758 
L 480 0 
L 954 0 
L 954 1363 
z
" transform="scale(0.015625)"/>
       <path id="CMSS17-65" d="M 2502 1377 
C 2502 1590 2490 2003 2285 2345 
C 2061 2713 1696 2816 1421 2816 
C 755 2816 192 2188 192 1375 
C 192 582 774 -64 1510 -64 
C 1798 -64 2150 19 2470 248 
C 2470 274 2458 414 2451 420 
C 2451 433 2432 630 2432 656 
C 2125 407 1773 325 1517 325 
C 1107 325 666 667 646 1377 
L 2502 1377 
z
M 698 1728 
C 781 2084 1062 2421 1421 2421 
C 1517 2421 1965 2421 2080 1728 
L 698 1728 
z
" transform="scale(0.015625)"/>
       <path id="CMSS17-63" d="M 2464 2541 
C 2464 2585 2170 2714 2093 2739 
C 1882 2816 1613 2816 1542 2816 
C 710 2816 211 2093 211 1363 
C 211 595 768 -64 1517 -64 
C 1946 -64 2253 76 2502 242 
L 2464 664 
C 2189 453 1869 337 1523 337 
C 1024 337 698 774 698 1369 
C 698 1831 909 2414 1549 2414 
C 1901 2414 2099 2343 2394 2145 
L 2464 2541 
z
" transform="scale(0.015625)"/>
       <path id="CMSS17-75" d="M 2618 2739 
L 2131 2739 
L 2131 972 
C 2131 498 1786 306 1421 306 
C 998 306 960 447 960 709 
L 960 2739 
L 474 2739 
L 474 678 
C 474 179 646 -64 1088 -64 
C 1306 -64 1798 -13 2144 306 
L 2144 0 
L 2618 0 
L 2618 2739 
z
" transform="scale(0.015625)"/>
       <path id="CMSS17-6e" d="M 2618 1877 
C 2618 2283 2522 2816 1798 2816 
C 1389 2816 1120 2606 941 2389 
L 941 2758 
L 474 2758 
L 474 0 
L 960 0 
L 960 1559 
C 960 1964 1114 2428 1549 2428 
C 2112 2428 2131 2048 2131 1829 
L 2131 0 
L 2618 0 
L 2618 1877 
z
" transform="scale(0.015625)"/>
       <path id="CMSS17-69" d="M 979 4183 
L 442 4183 
L 442 3648 
L 979 3648 
L 979 4183 
z
M 947 2739 
L 474 2739 
L 474 0 
L 947 0 
L 947 2739 
z
" transform="scale(0.015625)"/>
       <path id="CMSS17-61" d="M 2406 1791 
C 2406 2392 1978 2808 1402 2808 
C 1120 2808 813 2757 461 2553 
L 499 2135 
C 659 2248 934 2432 1395 2432 
C 1722 2432 1920 2180 1920 1782 
L 1920 1536 
C 896 1536 256 1238 256 726 
C 256 461 416 -64 947 -64 
C 1043 -64 1562 -64 1933 217 
L 1933 -19 
L 2406 -19 
L 2406 1791 
z
M 1920 816 
C 1920 701 1920 548 1728 434 
C 1562 325 1350 325 1261 325 
C 941 325 723 511 723 744 
C 723 1211 1722 1211 1920 1211 
L 1920 816 
z
" transform="scale(0.015625)"/>
       <path id="CMSS17-5b" d="M 1613 -1600 
L 1613 -1212 
L 1062 -1212 
L 1062 4352 
L 1613 4352 
L 1613 4741 
L 595 4741 
L 595 -1600 
L 1613 -1600 
z
" transform="scale(0.015625)"/>
       <path id="CMSS17-48" d="M 3674 4416 
L 3136 4416 
L 3136 2501 
L 1101 2501 
L 1101 4416 
L 563 4416 
L 563 0 
L 1101 0 
L 1101 2112 
L 3136 2112 
L 3136 0 
L 3674 0 
L 3674 4416 
z
" transform="scale(0.015625)"/>
       <path id="CMSS17-7a" d="M 2400 2502 
L 2400 2750 
L 250 2750 
L 250 2368 
L 1069 2368 
C 1146 2368 1222 2368 1299 2368 
L 1747 2368 
L 166 261 
L 166 0 
L 2419 0 
L 2419 395 
L 1549 395 
C 1472 395 1395 395 1318 395 
L 826 395 
L 2400 2502 
z
" transform="scale(0.015625)"/>
       <path id="CMSS17-5d" d="M 1146 4741 
L 128 4741 
L 128 4352 
L 678 4352 
L 678 -1212 
L 128 -1212 
L 128 -1600 
L 1146 -1600 
L 1146 4741 
z
" transform="scale(0.015625)"/>
      </defs>
      <use xlink:href="#CMSS17-46" transform="scale(0.996264)"/>
      <use xlink:href="#CMSS17-72" transform="translate(50.687105 0) scale(0.996264)"/>
      <use xlink:href="#CMSS17-65" transform="translate(82.596878 0) scale(0.996264)"/>
      <use xlink:href="#CMSS17-63" transform="translate(124.2357 0) scale(0.996264)"/>
      <use xlink:href="#CMSS17-75" transform="translate(165.874522 0) scale(0.996264)"/>
      <use xlink:href="#CMSS17-65" transform="translate(214.079465 0) scale(0.996264)"/>
      <use xlink:href="#CMSS17-6e" transform="translate(255.718287 0) scale(0.996264)"/>
      <use xlink:href="#CMSS17-63" transform="translate(303.92323 0) scale(0.996264)"/>
      <use xlink:href="#CMSS17-69" transform="translate(345.562052 0) scale(0.996264)"/>
      <use xlink:href="#CMSS17-61" transform="translate(367.742776 0) scale(0.996264)"/>
      <use xlink:href="#CMSS17-5b" transform="translate(443.893809 0) scale(0.996264)"/>
      <use xlink:href="#CMSS17-48" transform="translate(471.079247 0) scale(0.996264)"/>
      <use xlink:href="#CMSS17-7a" transform="translate(537.140767 0) scale(0.996264)"/>
      <use xlink:href="#CMSS17-5d" transform="translate(577.818638 0) scale(0.996264)"/>
     </g>
    </g>
    <g id="text_11">
     <!-- $\times\mathdefault{10^{6}}\mathdefault{}$ -->
     <g transform="translate(425.069118 329.463991) scale(0.11 -0.11)">
      <defs>
       <path id="CMSY10-2" d="M 2490 1785 
L 1210 3059 
C 1133 3136 1120 3148 1069 3148 
C 1005 3148 941 3091 941 3020 
C 941 2976 954 2963 1024 2892 
L 2304 1606 
L 1024 320 
C 954 249 941 236 941 192 
C 941 121 1005 64 1069 64 
C 1120 64 1133 76 1210 153 
L 2483 1427 
L 3808 102 
C 3821 96 3866 64 3904 64 
C 3981 64 4032 121 4032 192 
C 4032 204 4032 230 4013 262 
C 4006 275 2989 1280 2669 1606 
L 3840 2777 
C 3872 2816 3968 2899 4000 2937 
C 4006 2950 4032 2976 4032 3020 
C 4032 3091 3981 3148 3904 3148 
C 3853 3148 3827 3123 3757 3052 
L 2490 1785 
z
" transform="scale(0.015625)"/>
       <path id="CMR17-36" d="M 678 2176 
C 678 3690 1395 4032 1811 4032 
C 1946 4032 2272 4009 2400 3776 
C 2298 3776 2106 3776 2106 3553 
C 2106 3381 2246 3323 2336 3323 
C 2394 3323 2566 3348 2566 3560 
C 2566 3954 2246 4179 1805 4179 
C 1043 4179 243 3390 243 1984 
C 243 253 966 -128 1478 -128 
C 2099 -128 2688 427 2688 1283 
C 2688 2081 2170 2662 1517 2662 
C 1126 2662 838 2407 678 1960 
L 678 2176 
z
M 1478 25 
C 691 25 691 1200 691 1436 
C 691 1896 909 2560 1504 2560 
C 1613 2560 1926 2560 2138 2120 
C 2253 1870 2253 1609 2253 1289 
C 2253 944 2253 690 2118 434 
C 1978 171 1773 25 1478 25 
z
" transform="scale(0.015625)"/>
      </defs>
      <use xlink:href="#CMSY10-2" transform="scale(0.996264)"/>
      <use xlink:href="#CMR17-31" transform="translate(77.487468 0) scale(0.996264)"/>
      <use xlink:href="#CMR17-30" transform="translate(123.177945 0) scale(0.996264)"/>
      <use xlink:href="#CMR17-36" transform="translate(168.868422 36.153639) scale(0.697382)"/>
     </g>
    </g>
   </g>
   <g id="matplotlib.axis_2">
    <g id="ytick_1">
     <g id="line2d_19">
      <path d="M 47.84198 280.793329 
L 448.92 280.793329 
" clip-path="url(#p9ace5cf9b6)" style="fill: none; stroke: #b0b0b0; stroke-width: 0.8; stroke-linecap: square"/>
     </g>
     <g id="line2d_20">
      <defs>
       <path id="m33146f878f" d="M 0 0 
L -3.5 0 
" style="stroke: #000000; stroke-width: 0.8"/>
      </defs>
      <g>
       <use xlink:href="#m33146f878f" x="47.84198" y="280.793329" style="stroke: #000000; stroke-width: 0.8"/>
      </g>
     </g>
     <g id="text_12">
      <!-- $\mathdefault{0.6}$ -->
      <g transform="translate(26.838904 284.598502) scale(0.11 -0.11)">
       <use xlink:href="#CMR17-30" transform="scale(0.996264)"/>
       <use xlink:href="#CMMI12-3a" transform="translate(45.690477 0) scale(0.996264)"/>
       <use xlink:href="#CMR17-36" transform="translate(72.787654 0) scale(0.996264)"/>
      </g>
     </g>
    </g>
    <g id="ytick_2">
     <g id="line2d_21">
      <path d="M 47.84198 237.193703 
L 448.92 237.193703 
" clip-path="url(#p9ace5cf9b6)" style="fill: none; stroke: #b0b0b0; stroke-width: 0.8; stroke-linecap: square"/>
     </g>
     <g id="line2d_22">
      <g>
       <use xlink:href="#m33146f878f" x="47.84198" y="237.193703" style="stroke: #000000; stroke-width: 0.8"/>
      </g>
     </g>
     <g id="text_13">
      <!-- $\mathdefault{0.7}$ -->
      <g transform="translate(26.838904 240.998877) scale(0.11 -0.11)">
       <use xlink:href="#CMR17-30" transform="scale(0.996264)"/>
       <use xlink:href="#CMMI12-3a" transform="translate(45.690477 0) scale(0.996264)"/>
       <use xlink:href="#CMR17-37" transform="translate(72.787654 0) scale(0.996264)"/>
      </g>
     </g>
    </g>
    <g id="ytick_3">
     <g id="line2d_23">
      <path d="M 47.84198 193.594078 
L 448.92 193.594078 
" clip-path="url(#p9ace5cf9b6)" style="fill: none; stroke: #b0b0b0; stroke-width: 0.8; stroke-linecap: square"/>
     </g>
     <g id="line2d_24">
      <g>
       <use xlink:href="#m33146f878f" x="47.84198" y="193.594078" style="stroke: #000000; stroke-width: 0.8"/>
      </g>
     </g>
     <g id="text_14">
      <!-- $\mathdefault{0.8}$ -->
      <g transform="translate(26.838904 197.399251) scale(0.11 -0.11)">
       <defs>
        <path id="CMR17-38" d="M 1741 2264 
C 2144 2467 2554 2773 2554 3263 
C 2554 3841 1990 4179 1472 4179 
C 890 4179 378 3759 378 3180 
C 378 3021 416 2747 666 2505 
C 730 2442 998 2251 1171 2130 
C 883 1983 211 1634 211 934 
C 211 279 838 -128 1459 -128 
C 2144 -128 2720 362 2720 1010 
C 2720 1590 2330 1857 2074 2029 
L 1741 2264 
z
M 902 2822 
C 851 2854 595 3051 595 3351 
C 595 3739 998 4032 1459 4032 
C 1965 4032 2336 3676 2336 3262 
C 2336 2669 1670 2331 1638 2331 
C 1632 2331 1626 2331 1574 2370 
L 902 2822 
z
M 2080 1519 
C 2176 1449 2483 1240 2483 851 
C 2483 381 2010 25 1472 25 
C 890 25 448 438 448 940 
C 448 1443 838 1862 1280 2060 
L 2080 1519 
z
" transform="scale(0.015625)"/>
       </defs>
       <use xlink:href="#CMR17-30" transform="scale(0.996264)"/>
       <use xlink:href="#CMMI12-3a" transform="translate(45.690477 0) scale(0.996264)"/>
       <use xlink:href="#CMR17-38" transform="translate(72.787654 0) scale(0.996264)"/>
      </g>
     </g>
    </g>
    <g id="ytick_4">
     <g id="line2d_25">
      <path d="M 47.84198 149.994452 
L 448.92 149.994452 
" clip-path="url(#p9ace5cf9b6)" style="fill: none; stroke: #b0b0b0; stroke-width: 0.8; stroke-linecap: square"/>
     </g>
     <g id="line2d_26">
      <g>
       <use xlink:href="#m33146f878f" x="47.84198" y="149.994452" style="stroke: #000000; stroke-width: 0.8"/>
      </g>
     </g>
     <g id="text_15">
      <!-- $\mathdefault{0.9}$ -->
      <g transform="translate(26.838904 153.799626) scale(0.11 -0.11)">
       <defs>
        <path id="CMR17-39" d="M 2253 1864 
C 2253 464 1670 31 1190 31 
C 1043 31 685 31 538 294 
C 704 268 826 357 826 518 
C 826 692 685 749 595 749 
C 538 749 365 723 365 506 
C 365 71 742 -128 1203 -128 
C 1939 -128 2688 674 2688 2073 
C 2688 3817 1971 4179 1485 4179 
C 851 4179 243 3628 243 2778 
C 243 1991 762 1408 1414 1408 
C 1952 1408 2189 1903 2253 2112 
L 2253 1864 
z
M 1427 1510 
C 1254 1510 1011 1542 813 1922 
C 678 2169 678 2461 678 2771 
C 678 3146 678 3405 858 3684 
C 947 3817 1114 4032 1485 4032 
C 2240 4032 2240 2885 2240 2632 
C 2240 2182 2035 1510 1427 1510 
z
" transform="scale(0.015625)"/>
       </defs>
       <use xlink:href="#CMR17-30" transform="scale(0.996264)"/>
       <use xlink:href="#CMMI12-3a" transform="translate(45.690477 0) scale(0.996264)"/>
       <use xlink:href="#CMR17-39" transform="translate(72.787654 0) scale(0.996264)"/>
      </g>
     </g>
    </g>
    <g id="ytick_5">
     <g id="line2d_27">
      <path d="M 47.84198 106.394827 
L 448.92 106.394827 
" clip-path="url(#p9ace5cf9b6)" style="fill: none; stroke: #b0b0b0; stroke-width: 0.8; stroke-linecap: square"/>
     </g>
     <g id="line2d_28">
      <g>
       <use xlink:href="#m33146f878f" x="47.84198" y="106.394827" style="stroke: #000000; stroke-width: 0.8"/>
      </g>
     </g>
     <g id="text_16">
      <!-- $\mathdefault{1.0}$ -->
      <g transform="translate(26.838904 110.2) scale(0.11 -0.11)">
       <use xlink:href="#CMR17-31" transform="scale(0.996264)"/>
       <use xlink:href="#CMMI12-3a" transform="translate(45.690477 0) scale(0.996264)"/>
       <use xlink:href="#CMR17-30" transform="translate(72.787654 0) scale(0.996264)"/>
      </g>
     </g>
    </g>
    <g id="ytick_6">
     <g id="line2d_29">
      <path d="M 47.84198 62.795201 
L 448.92 62.795201 
" clip-path="url(#p9ace5cf9b6)" style="fill: none; stroke: #b0b0b0; stroke-width: 0.8; stroke-linecap: square"/>
     </g>
     <g id="line2d_30">
      <g>
       <use xlink:href="#m33146f878f" x="47.84198" y="62.795201" style="stroke: #000000; stroke-width: 0.8"/>
      </g>
     </g>
     <g id="text_17">
      <!-- $\mathdefault{1.1}$ -->
      <g transform="translate(26.838904 66.600375) scale(0.11 -0.11)">
       <use xlink:href="#CMR17-31" transform="scale(0.996264)"/>
       <use xlink:href="#CMMI12-3a" transform="translate(45.690477 0) scale(0.996264)"/>
       <use xlink:href="#CMR17-31" transform="translate(72.787654 0) scale(0.996264)"/>
      </g>
     </g>
    </g>
    <g id="text_18">
     <!-- Impedancia [$\Omega$] -->
     <g transform="translate(20.099178 199.432483) rotate(-90) scale(0.11 -0.11)">
      <defs>
       <path id="CMSS17-49" d="M 1094 4416 
L 557 4416 
L 557 0 
L 1094 0 
L 1094 4416 
z
" transform="scale(0.015625)"/>
       <path id="CMSS17-6d" d="M 4288 1877 
C 4288 2308 4179 2816 3462 2816 
C 2982 2816 2694 2516 2566 2331 
C 2451 2670 2182 2816 1798 2816 
C 1363 2816 1088 2568 941 2389 
L 941 2758 
L 474 2758 
L 474 0 
L 960 0 
L 960 1559 
C 960 1939 1101 2428 1555 2428 
C 2138 2428 2138 2016 2138 1829 
L 2138 0 
L 2624 0 
L 2624 1559 
C 2624 1939 2765 2428 3219 2428 
C 3802 2428 3802 2016 3802 1829 
L 3802 0 
L 4288 0 
L 4288 1877 
z
" transform="scale(0.015625)"/>
       <path id="CMSS17-70" d="M 966 333 
C 1178 129 1466 -5 1773 -5 
C 2368 -5 2880 603 2880 1412 
C 2880 2159 2496 2816 1946 2816 
C 1626 2816 1242 2702 954 2472 
L 954 2765 
L 480 2765 
L 480 -1216 
L 966 -1216 
L 966 333 
z
M 966 2100 
C 1018 2176 1235 2415 1587 2415 
C 2035 2415 2394 1960 2394 1412 
C 2394 787 1958 384 1530 384 
C 1402 384 1267 415 1139 523 
C 966 674 966 768 966 857 
L 966 2100 
z
" transform="scale(0.015625)"/>
       <path id="CMSS17-64" d="M 2611 4416 
L 2138 4416 
L 2138 2438 
C 1939 2603 1613 2756 1254 2756 
C 672 2756 211 2131 211 1347 
C 211 562 666 -64 1235 -64 
C 1677 -64 1971 172 2125 306 
L 2125 -13 
L 2611 -13 
L 2611 4416 
z
M 2125 836 
C 2125 747 2125 653 1926 482 
C 1798 375 1645 325 1498 325 
C 1152 325 698 576 698 1340 
C 698 2134 1210 2368 1562 2368 
C 1798 2368 1990 2254 2125 2065 
L 2125 836 
z
" transform="scale(0.015625)"/>
       <path id="CMR17-a" d="M 4038 935 
L 3923 935 
C 3866 641 3846 563 3814 461 
C 3782 365 3763 314 3392 314 
L 2874 314 
C 2944 686 3098 961 3366 1391 
C 3699 1935 3974 2377 3974 2910 
C 3974 3775 3155 4480 2138 4480 
C 1094 4480 294 3768 294 2910 
C 294 2377 576 1922 890 1416 
C 1171 961 1325 686 1395 314 
L 877 314 
C 512 314 493 365 461 454 
C 422 557 410 641 346 935 
L 230 935 
L 416 0 
L 1382 0 
C 1517 0 1523 6 1523 102 
C 1523 558 1286 1154 1178 1429 
C 973 1929 781 2416 781 2916 
C 781 3871 1466 4377 2131 4377 
C 2829 4377 3488 3851 3488 2916 
C 3488 2422 3315 1981 3078 1397 
C 2976 1135 2746 551 2746 102 
C 2746 0 2752 0 2886 0 
L 3853 0 
L 4038 935 
z
" transform="scale(0.015625)"/>
      </defs>
      <use xlink:href="#CMSS17-49" transform="scale(0.996264)"/>
      <use xlink:href="#CMSS17-6d" transform="translate(25.783926 0) scale(0.996264)"/>
      <use xlink:href="#CMSS17-70" transform="translate(100.01318 0) scale(0.996264)"/>
      <use xlink:href="#CMSS17-65" transform="translate(150.820562 0) scale(0.996264)"/>
      <use xlink:href="#CMSS17-64" transform="translate(192.459384 0) scale(0.996264)"/>
      <use xlink:href="#CMSS17-61" transform="translate(240.664327 0) scale(0.996264)"/>
      <use xlink:href="#CMSS17-6e" transform="translate(285.586248 0) scale(0.996264)"/>
      <use xlink:href="#CMSS17-63" transform="translate(333.791191 0) scale(0.996264)"/>
      <use xlink:href="#CMSS17-69" transform="translate(375.430013 0) scale(0.996264)"/>
      <use xlink:href="#CMSS17-61" transform="translate(397.610736 0) scale(0.996264)"/>
      <use xlink:href="#CMSS17-5b" transform="translate(473.761769 0) scale(0.996264)"/>
      <use xlink:href="#CMR17-a" transform="translate(500.947208 0) scale(0.996264)"/>
      <use xlink:href="#CMSS17-5d" transform="translate(567.457088 0) scale(0.996264)"/>
     </g>
    </g>
    <g id="text_19">
     <!-- $\times\mathdefault{10^{6}}\mathdefault{}$ -->
     <g transform="translate(47.84198 24.012395) scale(0.11 -0.11)">
      <use xlink:href="#CMSY10-2" transform="scale(0.996264)"/>
      <use xlink:href="#CMR17-31" transform="translate(77.487468 0) scale(0.996264)"/>
      <use xlink:href="#CMR17-30" transform="translate(123.177945 0) scale(0.996264)"/>
      <use xlink:href="#CMR17-36" transform="translate(168.868422 36.153639) scale(0.697382)"/>
     </g>
    </g>
   </g>
   <g id="line2d_31">
    <path d="M 66.072799 101.348265 
L 66.163956 101.093823 
L 66.346269 98.077623 
L 66.528581 97.312339 
L 66.80205 96.712879 
L 66.893207 96.776586 
L 66.984363 96.500355 
L 67.07552 96.545557 
L 67.166676 96.304264 
L 67.257832 96.352176 
L 67.531301 95.923199 
L 67.622458 95.949162 
L 67.895927 95.70011 
L 68.169396 95.586642 
L 68.534022 95.429767 
L 68.716334 95.394221 
L 68.898647 94.08526 
L 80.648704 94.863753 
L 86.118086 95.563502 
L 87.02965 95.736584 
L 88.852777 95.902917 
L 90.675905 96.258917 
L 91.587469 96.365001 
L 92.499032 96.64165 
L 97.056851 97.420831 
L 99.791542 98.07262 
L 100.703106 98.244805 
L 101.61467 98.569381 
L 102.526233 98.734611 
L 105.260925 99.594298 
L 107.084052 100.028464 
L 108.90718 100.585613 
L 109.818743 100.707482 
L 117.111253 103.112853 
L 118.934381 103.7947 
L 121.669072 104.763325 
L 138.077219 111.631693 
L 154.485367 119.972009 
L 155.396931 120.659937 
L 157.220058 121.551886 
L 165.424132 126.051713 
L 168.158823 127.867563 
L 173.628205 130.862541 
L 176.362897 132.691993 
L 181.832279 136.035879 
L 187.301662 139.372706 
L 192.771044 143.159022 
L 195.505735 144.823397 
L 198.240426 146.787296 
L 200.975118 148.421075 
L 203.709809 150.288735 
L 206.4445 151.996963 
L 209.179191 153.94533 
L 211.913883 155.637361 
L 214.648574 157.665406 
L 217.383265 159.390022 
L 220.117956 161.461269 
L 231.056721 168.716102 
L 236.526104 172.684891 
L 239.260795 174.529296 
L 241.995486 176.618517 
L 244.730177 178.388182 
L 247.464869 180.406064 
L 250.19956 182.187189 
L 252.934251 184.271372 
L 258.403634 187.804071 
L 277.546472 200.976359 
L 280.281163 202.731655 
L 283.015855 204.735946 
L 291.219928 210.067144 
L 293.954619 212.219222 
L 299.424002 215.531159 
L 302.158693 217.313427 
L 304.893384 219.242643 
L 315.832149 225.947422 
L 321.301532 229.594522 
L 340.44437 241.230759 
L 343.179062 242.77904 
L 351.383135 247.825362 
L 359.587209 252.467251 
L 362.3219 254.104658 
L 367.791283 257.042989 
L 370.525974 258.658962 
L 373.260665 260.097013 
L 375.995356 261.875823 
L 381.464739 264.696897 
L 389.668812 269.12294 
L 392.403504 270.478565 
L 395.138195 272.053077 
L 400.607577 274.699548 
L 408.811651 279.013302 
L 414.281034 281.644169 
L 417.015725 283.053758 
L 419.750416 284.311902 
L 422.485107 285.75568 
L 430.689181 289.519515 
L 430.689181 289.519515 
" clip-path="url(#p9ace5cf9b6)" style="fill: none; stroke: #1f77b4; stroke-width: 1.5; stroke-linecap: square"/>
   </g>
   <g id="line2d_32">
    <path d="M 66.072799 53.204541 
L 66.163956 54.599739 
L 66.346269 51.904577 
L 66.528581 51.330673 
L 66.893207 51.064729 
L 68.260552 50.724581 
L 69.263273 50.554408 
L 73.821091 50.129255 
L 75.179321 50.156809 
L 78.825576 50.45964 
L 80.648704 50.63524 
L 81.560267 50.82405 
L 82.471831 50.807877 
L 84.294959 51.159449 
L 85.206522 51.210521 
L 86.118086 51.434268 
L 87.02965 51.524465 
L 88.852777 51.884184 
L 91.587469 52.494692 
L 95.233724 53.429385 
L 96.145287 53.575338 
L 97.056851 53.913667 
L 97.968415 54.084344 
L 98.879979 54.432437 
L 99.791542 54.631637 
L 109.818743 58.19948 
L 115.288126 60.508245 
L 116.19969 60.851947 
L 118.022817 61.68388 
L 129.873146 67.778127 
L 130.78471 68.287511 
L 131.696273 69.009827 
L 133.519401 69.940257 
L 135.342528 70.992549 
L 138.077219 72.503228 
L 147.192857 78.177224 
L 148.104421 78.88518 
L 151.750676 81.212905 
L 162.689441 88.770488 
L 165.424132 90.883055 
L 168.158823 92.796297 
L 170.893514 95.259114 
L 173.628205 97.133828 
L 179.097588 101.351474 
L 181.832279 103.681148 
L 187.301662 107.780472 
L 190.036353 110.058542 
L 192.771044 112.527279 
L 200.975118 119.073004 
L 203.709809 121.416088 
L 209.179191 125.763133 
L 211.913883 128.095956 
L 214.648574 130.242359 
L 217.383265 132.646054 
L 220.117956 134.895275 
L 222.852648 137.322187 
L 233.791412 146.250688 
L 236.526104 148.728125 
L 239.260795 150.872576 
L 241.995486 153.322724 
L 244.730177 155.469845 
L 247.464869 157.988289 
L 252.934251 162.300421 
L 255.668942 164.521462 
L 258.403634 166.983113 
L 261.138325 169.078239 
L 263.873016 171.573056 
L 269.342398 175.686761 
L 277.546472 182.398094 
L 296.689311 197.110411 
L 299.424002 199.611032 
L 307.628076 205.395585 
L 315.832149 211.342968 
L 332.240297 223.164292 
L 334.974988 224.937045 
L 337.709679 226.882826 
L 340.44437 228.637906 
L 343.179062 230.717214 
L 345.913753 232.436537 
L 348.648444 234.337246 
L 354.117827 237.78719 
L 362.3219 243.168627 
L 367.791283 246.485344 
L 370.525974 248.27817 
L 373.260665 249.870037 
L 375.995356 251.765289 
L 384.19943 256.510563 
L 386.934121 258.223592 
L 397.872886 264.329184 
L 400.607577 265.966251 
L 408.811651 270.454663 
L 411.546342 272.110486 
L 419.750416 276.375149 
L 422.485107 277.899402 
L 425.219798 279.285831 
L 427.95449 280.867692 
L 430.689181 282.176268 
L 430.689181 282.176268 
" clip-path="url(#p9ace5cf9b6)" style="fill: none; stroke: #ff7f0e; stroke-width: 1.5; stroke-linecap: square"/>
   </g>
   <g id="line2d_33">
    <path d="M 66.072799 71.959589 
L 66.255112 49.061097 
L 66.437425 48.168778 
L 66.80205 47.499025 
L 66.893207 47.503922 
L 67.07552 47.362758 
L 67.257832 47.245058 
L 68.807491 46.92618 
L 74.914968 46.789193 
L 77.002449 46.906013 
L 82.471831 47.518535 
L 88.852777 48.629418 
L 97.056851 50.640157 
L 105.260925 53.214995 
L 106.172488 53.784198 
L 107.995616 54.348764 
L 111.641871 55.830764 
L 113.464998 56.690621 
L 115.288126 57.487766 
L 119.845945 59.570118 
L 123.4922 61.425471 
L 124.403763 61.846646 
L 125.315327 62.417328 
L 127.138455 63.305747 
L 130.78471 65.306242 
L 143.546602 73.019425 
L 145.369729 74.289411 
L 148.104421 76.00604 
L 149.015984 76.78782 
L 150.839112 77.956669 
L 152.662239 79.211982 
L 153.573803 79.677525 
L 157.220058 82.385121 
L 157.220058 82.385121 
L 162.689441 86.16683 
L 168.158823 90.401504 
L 173.628205 94.689448 
L 176.362897 96.659628 
L 179.097588 99.111866 
L 181.832279 101.149128 
L 184.56697 103.551068 
L 190.036353 107.820368 
L 203.709809 119.245203 
L 206.4445 121.606017 
L 209.179191 123.790129 
L 211.913883 126.260652 
L 217.383265 130.727969 
L 220.117956 132.945997 
L 222.852648 135.554241 
L 225.587339 137.728784 
L 231.056721 142.44961 
L 241.995486 151.559022 
L 244.730177 154.282174 
L 250.19956 158.632703 
L 258.403634 165.37869 
L 261.138325 167.840889 
L 274.811781 178.819437 
L 277.546472 180.89259 
L 280.281163 183.119952 
L 283.015855 185.711362 
L 288.485237 189.694323 
L 299.424002 198.11129 
L 302.158693 200.22291 
L 304.893384 202.187373 
L 307.628076 204.353766 
L 315.832149 210.257959 
L 318.566841 212.438781 
L 326.770914 218.239622 
L 329.505605 220.364089 
L 337.709679 225.96715 
L 340.44437 228.103151 
L 351.383135 235.180508 
L 365.056591 244.0715 
L 370.525974 247.440396 
L 373.260665 249.323055 
L 378.730048 252.471807 
L 381.464739 254.21672 
L 384.19943 255.804132 
L 386.934121 257.668127 
L 408.811651 269.8994 
L 411.546342 271.612558 
L 422.485107 277.303508 
L 425.219798 278.887848 
L 430.689181 281.583798 
L 430.689181 281.583798 
" clip-path="url(#p9ace5cf9b6)" style="fill: none; stroke: #2ca02c; stroke-width: 1.5; stroke-linecap: square"/>
   </g>
   <g id="line2d_34">
    <path d="M 66.072799 51.803396 
L 66.255112 44.303874 
L 66.528581 43.905238 
L 66.893207 43.8274 
L 67.07552 43.463252 
L 67.713614 43.398281 
L 67.895927 43.116714 
L 68.625178 43.09629 
L 68.807491 42.928433 
L 69.627898 42.922831 
L 69.810211 42.804093 
L 77.914012 43.320563 
L 88.852777 45.00953 
L 89.764341 45.228149 
L 90.675905 45.588062 
L 92.499032 45.919195 
L 93.410596 46.251345 
L 94.32216 46.375699 
L 95.233724 46.717518 
L 96.145287 46.889357 
L 97.968415 47.567989 
L 101.61467 48.690328 
L 102.526233 49.085324 
L 103.437797 49.28673 
L 104.349361 49.711762 
L 105.260925 49.963577 
L 106.172488 50.438782 
L 107.084052 50.685346 
L 107.995616 51.129159 
L 108.90718 51.410294 
L 109.818743 51.869037 
L 110.730307 52.152865 
L 119.845945 56.482709 
L 129.873146 61.751476 
L 137.165656 66.13981 
L 139.900347 67.810345 
L 141.723474 69.081265 
L 143.546602 70.233205 
L 145.369729 71.492822 
L 154.485367 77.846258 
L 155.396931 78.302369 
L 159.954749 81.607223 
L 162.689441 83.72247 
L 165.424132 85.662734 
L 173.628205 92.329059 
L 176.362897 94.371653 
L 190.036353 105.40527 
L 192.771044 107.849295 
L 195.505735 109.951757 
L 203.709809 116.98727 
L 206.4445 119.857709 
L 211.913883 124.194182 
L 225.587339 135.934723 
L 228.32203 138.168011 
L 239.260795 147.668491 
L 241.995486 149.892804 
L 244.730177 152.643817 
L 250.19956 156.98871 
L 258.403634 163.825379 
L 261.138325 165.995915 
L 263.873016 168.396294 
L 266.607707 170.596512 
L 269.342398 173.044586 
L 277.546472 179.586842 
L 280.281163 182.025461 
L 283.015855 184.111479 
L 285.750546 186.558251 
L 291.219928 190.661708 
L 307.628076 203.419112 
L 313.097458 207.397093 
L 315.832149 209.514819 
L 337.709679 225.100121 
L 343.179062 228.842029 
L 345.913753 231.170062 
L 351.383135 234.545947 
L 365.056591 243.354193 
L 367.791283 244.997515 
L 375.995356 250.308014 
L 381.464739 253.542443 
L 386.934121 256.817456 
L 392.403504 259.99209 
L 397.872886 263.1004 
L 400.607577 264.756141 
L 403.342269 266.247035 
L 406.07696 267.879785 
L 408.811651 269.322753 
L 411.546342 270.973347 
L 419.750416 275.293368 
L 422.485107 277.055403 
L 427.95449 279.737903 
L 430.689181 281.163835 
L 430.689181 281.163835 
" clip-path="url(#p9ace5cf9b6)" style="fill: none; stroke: #d62728; stroke-width: 1.5; stroke-linecap: square"/>
   </g>
   <g id="line2d_35">
    <path d="M 66.072799 61.061681 
L 66.255112 43.159238 
L 66.437425 41.471386 
L 66.80205 41.134467 
L 66.984363 40.364857 
L 67.987083 40.112243 
L 69.536742 40.007533 
L 69.810211 39.925291 
L 70.265993 39.894519 
L 70.448305 39.529423 
L 73.456466 39.600092 
L 75.179321 39.702457 
L 77.002449 39.924156 
L 77.914012 39.957463 
L 78.825576 40.18236 
L 79.73714 40.210622 
L 80.648704 40.429613 
L 82.471831 40.627488 
L 84.294959 40.98706 
L 85.206522 40.985301 
L 86.118086 41.253519 
L 87.02965 41.358972 
L 87.941214 41.623666 
L 88.852777 41.758848 
L 89.764341 42.023342 
L 90.675905 42.141165 
L 93.410596 42.883272 
L 96.145287 43.633977 
L 97.056851 44.108344 
L 101.61467 45.579454 
L 102.526233 45.966679 
L 103.437797 46.225437 
L 105.260925 46.925839 
L 109.818743 48.631031 
L 110.730307 49.094389 
L 111.641871 49.416629 
L 112.553435 49.951324 
L 113.464998 50.260307 
L 114.376562 50.770199 
L 115.288126 51.104956 
L 116.19969 51.838359 
L 118.022817 52.600915 
L 119.845945 53.42397 
L 120.757508 54.0774 
L 122.580636 54.902194 
L 124.403763 55.823074 
L 125.315327 56.452475 
L 127.138455 57.385025 
L 131.696273 59.939397 
L 135.342528 62.113268 
L 150.839112 72.423878 
L 162.689441 80.986465 
L 165.424132 83.307039 
L 168.158823 85.288028 
L 170.893514 87.54005 
L 173.628205 89.630306 
L 176.362897 92.007629 
L 179.097588 94.129423 
L 181.832279 96.437366 
L 184.56697 98.592115 
L 187.301662 101.071041 
L 190.036353 103.337031 
L 192.771044 105.789544 
L 195.505735 107.946015 
L 198.240426 110.356715 
L 200.975118 112.567005 
L 203.709809 115.245547 
L 206.4445 117.415723 
L 209.179191 119.917868 
L 214.648574 124.416749 
L 217.383265 126.825912 
L 220.117956 129.440771 
L 225.587339 134.037006 
L 231.056721 138.744654 
L 233.791412 141.449016 
L 236.526104 143.635569 
L 255.668942 160.011526 
L 258.403634 162.623337 
L 263.873016 166.976732 
L 266.607707 169.305786 
L 269.342398 171.842853 
L 277.546472 178.417387 
L 280.281163 180.856654 
L 285.750546 185.020928 
L 288.485237 187.275243 
L 291.219928 189.778676 
L 296.689311 193.829327 
L 304.893384 200.104924 
L 307.628076 202.070369 
L 310.362767 204.220091 
L 313.097458 206.653985 
L 315.832149 208.537209 
L 318.566841 210.64831 
L 326.770914 216.429973 
L 329.505605 218.460261 
L 332.240297 220.310908 
L 334.974988 222.324364 
L 337.709679 224.190894 
L 340.44437 226.238097 
L 343.179062 228.02324 
L 345.913753 229.960338 
L 348.648444 231.757624 
L 351.383135 233.751239 
L 356.852518 237.298405 
L 365.056591 242.528084 
L 367.791283 244.66314 
L 373.260665 247.895754 
L 378.730048 251.21054 
L 381.464739 252.990141 
L 389.668812 257.782098 
L 392.403504 259.572688 
L 403.342269 265.707505 
L 406.07696 267.372806 
L 430.689181 280.668248 
L 430.689181 280.668248 
" clip-path="url(#p9ace5cf9b6)" style="fill: none; stroke: #9467bd; stroke-width: 1.5; stroke-linecap: square"/>
   </g>
   <g id="patch_3">
    <path d="M 47.84198 302.019855 
L 47.84198 27.012395 
" style="fill: none; stroke: #000000; stroke-width: 0.8; stroke-linejoin: miter; stroke-linecap: square"/>
   </g>
   <g id="patch_4">
    <path d="M 448.92 302.019855 
L 448.92 27.012395 
" style="fill: none; stroke: #000000; stroke-width: 0.8; stroke-linejoin: miter; stroke-linecap: square"/>
   </g>
   <g id="patch_5">
    <path d="M 47.84198 302.019855 
L 448.92 302.019855 
" style="fill: none; stroke: #000000; stroke-width: 0.8; stroke-linejoin: miter; stroke-linecap: square"/>
   </g>
   <g id="patch_6">
    <path d="M 47.84198 27.012395 
L 448.92 27.012395 
" style="fill: none; stroke: #000000; stroke-width: 0.8; stroke-linejoin: miter; stroke-linecap: square"/>
   </g>
   <g id="text_20">
    <!-- Comparación de diferentes concentraciones PANI -->
    <g transform="translate(116.875129 21.012395) scale(0.132 -0.132)">
     <defs>
      <path id="CMSS17-43" d="M 3501 714 
C 3072 427 2874 344 2355 344 
C 1459 344 934 1303 934 2179 
C 934 3112 1472 4032 2381 4032 
C 2790 4032 3059 3918 3386 3715 
L 3475 4217 
C 3168 4370 2778 4440 2387 4440 
C 1158 4440 397 3316 397 2179 
C 397 927 1299 -64 2323 -64 
C 2874 -64 3066 -19 3539 280 
L 3501 714 
z
" transform="scale(0.015625)"/>
      <path id="CMSS17-6f" d="M 2829 1356 
C 2829 2176 2221 2816 1504 2816 
C 768 2816 173 2157 173 1356 
C 173 544 787 -64 1498 -64 
C 2227 -64 2829 563 2829 1356 
z
M 1504 337 
C 1050 337 659 709 659 1408 
C 659 2151 1114 2427 1498 2427 
C 1914 2427 2342 2126 2342 1408 
C 2342 683 1926 337 1504 337 
z
" transform="scale(0.015625)"/>
      <path id="CMSS17-13" d="M 2502 4448 
L 2016 4448 
L 1222 3328 
L 1613 3328 
L 2502 4448 
z
" transform="scale(0.015625)"/>
      <path id="CMSS17-66" d="M 1075 2368 
L 1722 2368 
L 1722 2737 
L 1062 2737 
L 1062 3559 
C 1062 4014 1408 4092 1606 4092 
C 1670 4092 1850 4092 2080 4009 
L 2080 4429 
C 1933 4461 1754 4480 1613 4480 
C 1018 4480 602 3993 602 3359 
L 602 2737 
L 160 2737 
L 160 2368 
L 602 2368 
L 602 0 
L 1075 0 
L 1075 2368 
z
" transform="scale(0.015625)"/>
      <path id="CMSS17-74" d="M 1069 2368 
L 1901 2368 
L 1901 2737 
L 1069 2737 
L 1069 3520 
L 614 3520 
L 614 2737 
L 109 2737 
L 109 2368 
L 602 2368 
L 602 749 
C 602 384 685 -64 1107 -64 
C 1427 -64 1722 25 2003 172 
L 1901 548 
C 1747 414 1562 337 1363 337 
C 1082 337 1069 696 1069 856 
L 1069 2368 
z
" transform="scale(0.015625)"/>
      <path id="CMSS17-73" d="M 2061 2627 
C 1683 2807 1389 2807 1197 2807 
C 742 2807 198 2648 198 2003 
C 198 1359 902 1218 1094 1179 
C 1389 1122 1715 1058 1715 740 
C 1715 337 1254 337 1171 337 
C 915 337 563 407 243 638 
L 166 210 
C 531 0 883 -64 1178 -64 
C 1965 -64 2163 416 2163 781 
C 2163 1094 1984 1305 1862 1401 
C 1651 1568 1574 1587 1050 1696 
C 960 1709 646 1779 646 2066 
C 646 2432 1050 2432 1139 2432 
C 1555 2432 1811 2303 1984 2208 
L 2061 2627 
z
" transform="scale(0.015625)"/>
      <path id="CMSS17-50" d="M 2106 1856 
C 2874 1856 3501 2453 3501 3158 
C 3501 3850 2899 4453 2067 4453 
L 570 4453 
L 570 0 
L 1107 0 
L 1107 1856 
L 2106 1856 
z
M 1926 4096 
C 2669 4096 2995 3627 2995 3157 
C 2995 2720 2694 2226 1926 2226 
L 1094 2226 
L 1094 4096 
L 1926 4096 
z
" transform="scale(0.015625)"/>
      <path id="CMSS17-41" d="M 2272 4416 
L 1722 4416 
L 166 0 
L 653 0 
L 1101 1280 
L 2816 1280 
L 3270 0 
L 3827 0 
L 2272 4416 
z
M 2694 1637 
L 1222 1637 
C 1530 2528 1914 3638 1958 3925 
L 1965 3925 
C 2010 3663 2138 3281 2246 2956 
L 2694 1637 
z
" transform="scale(0.015625)"/>
      <path id="CMSS17-4e" d="M 1466 4180 
L 1350 4416 
L 563 4416 
L 563 0 
L 1062 0 
L 1062 3926 
L 1069 3932 
C 1114 3817 1139 3760 1402 3194 
L 2771 236 
L 2886 0 
L 3674 0 
L 3674 4416 
L 3174 4416 
L 3174 490 
L 3168 483 
C 3123 598 3098 655 2835 1221 
L 1466 4180 
z
" transform="scale(0.015625)"/>
     </defs>
     <use xlink:href="#CMSS17-43" transform="scale(0.996264)"/>
     <use xlink:href="#CMSS17-6f" transform="translate(59.855772 0) scale(0.996264)"/>
     <use xlink:href="#CMSS17-6d" transform="translate(106.699395 0) scale(0.996264)"/>
     <use xlink:href="#CMSS17-70" transform="translate(180.92865 0) scale(0.996264)"/>
     <use xlink:href="#CMSS17-61" transform="translate(229.133593 0) scale(0.996264)"/>
     <use xlink:href="#CMSS17-72" transform="translate(271.453059 0) scale(0.996264)"/>
     <use xlink:href="#CMSS17-61" transform="translate(303.362832 0) scale(0.996264)"/>
     <use xlink:href="#CMSS17-63" transform="translate(348.284752 0) scale(0.996264)"/>
     <use xlink:href="#CMSS17-69" transform="translate(389.923575 0) scale(0.996264)"/>
     <use xlink:href="#CMSS17-13" transform="translate(412.104298 0) scale(0.996264)"/>
     <use xlink:href="#CMSS17-6f" transform="translate(412.104298 0) scale(0.996264)"/>
     <use xlink:href="#CMSS17-6e" transform="translate(458.947921 0) scale(0.996264)"/>
     <use xlink:href="#CMSS17-64" transform="translate(538.381977 0) scale(0.996264)"/>
     <use xlink:href="#CMSS17-65" transform="translate(586.58692 0) scale(0.996264)"/>
     <use xlink:href="#CMSS17-64" transform="translate(659.454855 0) scale(0.996264)"/>
     <use xlink:href="#CMSS17-69" transform="translate(707.659798 0) scale(0.996264)"/>
     <use xlink:href="#CMSS17-66" transform="translate(729.840521 0) scale(0.996264)"/>
     <use xlink:href="#CMSS17-65" transform="translate(758.46718 0) scale(0.996264)"/>
     <use xlink:href="#CMSS17-72" transform="translate(800.106002 0) scale(0.996264)"/>
     <use xlink:href="#CMSS17-65" transform="translate(832.015775 0) scale(0.996264)"/>
     <use xlink:href="#CMSS17-6e" transform="translate(873.654597 0) scale(0.996264)"/>
     <use xlink:href="#CMSS17-74" transform="translate(921.85954 0) scale(0.996264)"/>
     <use xlink:href="#CMSS17-65" transform="translate(955.691106 0) scale(0.996264)"/>
     <use xlink:href="#CMSS17-73" transform="translate(997.329929 0) scale(0.996264)"/>
     <use xlink:href="#CMSS17-63" transform="translate(1064.472583 0) scale(0.996264)"/>
     <use xlink:href="#CMSS17-6f" transform="translate(1106.111405 0) scale(0.996264)"/>
     <use xlink:href="#CMSS17-6e" transform="translate(1152.955029 0) scale(0.996264)"/>
     <use xlink:href="#CMSS17-63" transform="translate(1201.159972 0) scale(0.996264)"/>
     <use xlink:href="#CMSS17-65" transform="translate(1242.798794 0) scale(0.996264)"/>
     <use xlink:href="#CMSS17-6e" transform="translate(1284.437616 0) scale(0.996264)"/>
     <use xlink:href="#CMSS17-74" transform="translate(1332.642559 0) scale(0.996264)"/>
     <use xlink:href="#CMSS17-72" transform="translate(1366.474126 0) scale(0.996264)"/>
     <use xlink:href="#CMSS17-61" transform="translate(1398.383899 0) scale(0.996264)"/>
     <use xlink:href="#CMSS17-63" transform="translate(1443.305819 0) scale(0.996264)"/>
     <use xlink:href="#CMSS17-69" transform="translate(1484.944641 0) scale(0.996264)"/>
     <use xlink:href="#CMSS17-6f" transform="translate(1507.125364 0) scale(0.996264)"/>
     <use xlink:href="#CMSS17-6e" transform="translate(1553.968988 0) scale(0.996264)"/>
     <use xlink:href="#CMSS17-65" transform="translate(1602.173931 0) scale(0.996264)"/>
     <use xlink:href="#CMSS17-73" transform="translate(1643.812753 0) scale(0.996264)"/>
     <use xlink:href="#CMSS17-50" transform="translate(1710.955408 0) scale(0.996264)"/>
     <use xlink:href="#CMSS17-41" transform="translate(1762.883739 0) scale(0.996264)"/>
     <use xlink:href="#CMSS17-4e" transform="translate(1825.101594 0) scale(0.996264)"/>
     <use xlink:href="#CMSS17-49" transform="translate(1891.163113 0) scale(0.996264)"/>
    </g>
   </g>
   <g id="legend_1">
    <g id="patch_7">
     <path d="M 371.377601 112.466868 
L 441.22 112.466868 
Q 443.42 112.466868 443.42 110.266868 
L 443.42 34.712395 
Q 443.42 32.512395 441.22 32.512395 
L 371.377601 32.512395 
Q 369.177601 32.512395 369.177601 34.712395 
L 369.177601 110.266868 
Q 369.177601 112.466868 371.377601 112.466868 
z
" style="fill: #ffffff; opacity: 0.8; stroke: #cccccc; stroke-linejoin: miter"/>
    </g>
    <g id="line2d_36">
     <path d="M 373.577601 40.762395 
L 384.577601 40.762395 
L 395.577601 40.762395 
" style="fill: none; stroke: #1f77b4; stroke-width: 1.5; stroke-linecap: square"/>
    </g>
    <g id="text_21">
     <!-- en aire -->
     <g transform="translate(404.377601 44.612395) scale(0.11 -0.11)">
      <use xlink:href="#CMSS17-65" transform="scale(0.996264)"/>
      <use xlink:href="#CMSS17-6e" transform="translate(41.638822 0) scale(0.996264)"/>
      <use xlink:href="#CMSS17-61" transform="translate(121.072878 0) scale(0.996264)"/>
      <use xlink:href="#CMSS17-69" transform="translate(165.994799 0) scale(0.996264)"/>
      <use xlink:href="#CMSS17-72" transform="translate(188.175522 0) scale(0.996264)"/>
      <use xlink:href="#CMSS17-65" transform="translate(220.085294 0) scale(0.996264)"/>
     </g>
    </g>
    <g id="line2d_37">
     <path d="M 373.577601 56.093289 
L 384.577601 56.093289 
L 395.577601 56.093289 
" style="fill: none; stroke: #ff7f0e; stroke-width: 1.5; stroke-linecap: square"/>
    </g>
    <g id="text_22">
     <!-- 20 ppm -->
     <g transform="translate(404.377601 59.943289) scale(0.11 -0.11)">
      <defs>
       <path id="CMSS17-32" d="M 1651 1357 
C 1830 1541 2099 1764 2285 1987 
C 2464 2204 2701 2511 2701 2957 
C 2701 3657 2227 4288 1421 4288 
C 787 4288 422 3893 250 3274 
L 499 2929 
C 640 3510 838 3880 1338 3880 
C 1888 3880 2195 3433 2195 2942 
C 2195 2355 1747 1901 1408 1563 
C 1030 1187 659 804 301 408 
L 301 0 
L 2701 0 
L 2701 433 
L 1613 433 
C 1536 433 1459 433 1382 433 
L 742 433 
L 742 439 
L 1651 1357 
z
" transform="scale(0.015625)"/>
       <path id="CMSS17-30" d="M 2758 2044 
C 2758 2405 2752 3077 2490 3596 
C 2227 4096 1805 4229 1504 4229 
C 1069 4229 698 3975 506 3570 
C 301 3146 243 2709 243 2044 
C 243 1589 262 1031 493 543 
C 755 5 1197 -128 1498 -128 
C 1894 -128 2278 81 2496 518 
C 2720 974 2758 1474 2758 2044 
z
M 1498 261 
C 1011 261 864 811 819 995 
C 742 1310 730 1614 730 2114 
C 730 2506 730 2948 851 3297 
C 998 3701 1254 3840 1498 3840 
C 1971 3840 2125 3372 2176 3208 
C 2272 2873 2272 2481 2272 2114 
C 2272 1526 2272 261 1498 261 
z
" transform="scale(0.015625)"/>
      </defs>
      <use xlink:href="#CMSS17-32" transform="scale(0.996264)"/>
      <use xlink:href="#CMSS17-30" transform="translate(46.843624 0) scale(0.996264)"/>
      <use xlink:href="#CMSS17-70" transform="translate(124.91636 0) scale(0.996264)"/>
      <use xlink:href="#CMSS17-70" transform="translate(173.121303 0) scale(0.996264)"/>
      <use xlink:href="#CMSS17-6d" transform="translate(221.326246 0) scale(0.996264)"/>
     </g>
    </g>
    <g id="line2d_38">
     <path d="M 373.577601 71.424184 
L 384.577601 71.424184 
L 395.577601 71.424184 
" style="fill: none; stroke: #2ca02c; stroke-width: 1.5; stroke-linecap: square"/>
    </g>
    <g id="text_23">
     <!-- 40 ppm -->
     <g transform="translate(404.377601 75.274184) scale(0.11 -0.11)">
      <defs>
       <path id="CMSS17-34" d="M 2253 1088 
L 2835 1088 
L 2835 1477 
L 2253 1477 
L 2253 4192 
L 1690 4192 
L 166 1477 
L 166 1088 
L 1747 1088 
L 1747 0 
L 2253 0 
L 2253 1088 
z
M 659 1477 
C 1030 2127 1766 3439 1766 3885 
L 1766 1477 
L 659 1477 
z
" transform="scale(0.015625)"/>
      </defs>
      <use xlink:href="#CMSS17-34" transform="scale(0.996264)"/>
      <use xlink:href="#CMSS17-30" transform="translate(46.843624 0) scale(0.996264)"/>
      <use xlink:href="#CMSS17-70" transform="translate(124.91636 0) scale(0.996264)"/>
      <use xlink:href="#CMSS17-70" transform="translate(173.121303 0) scale(0.996264)"/>
      <use xlink:href="#CMSS17-6d" transform="translate(221.326246 0) scale(0.996264)"/>
     </g>
    </g>
    <g id="line2d_39">
     <path d="M 373.577601 86.755079 
L 384.577601 86.755079 
L 395.577601 86.755079 
" style="fill: none; stroke: #d62728; stroke-width: 1.5; stroke-linecap: square"/>
    </g>
    <g id="text_24">
     <!-- 60 ppm -->
     <g transform="translate(404.377601 90.605079) scale(0.11 -0.11)">
      <defs>
       <path id="CMSS17-36" d="M 2496 4101 
C 2227 4210 2035 4229 1856 4229 
C 1024 4229 250 3368 250 2006 
C 250 265 986 -128 1510 -128 
C 1798 -128 2086 -39 2362 280 
C 2643 617 2752 898 2752 1389 
C 2752 2179 2362 2880 1779 2880 
C 1357 2880 992 2657 768 2376 
C 832 3258 1254 3840 1862 3840 
C 2029 3840 2246 3816 2496 3710 
L 2496 4101 
z
M 774 1369 
C 774 1420 774 1452 781 1548 
C 781 2045 1069 2491 1536 2491 
C 1837 2491 1990 2332 2106 2135 
C 2240 1886 2246 1650 2246 1388 
C 2246 1140 2246 891 2099 637 
C 1978 439 1818 267 1510 267 
C 902 267 800 1114 774 1369 
z
" transform="scale(0.015625)"/>
      </defs>
      <use xlink:href="#CMSS17-36" transform="scale(0.996264)"/>
      <use xlink:href="#CMSS17-30" transform="translate(46.843624 0) scale(0.996264)"/>
      <use xlink:href="#CMSS17-70" transform="translate(124.91636 0) scale(0.996264)"/>
      <use xlink:href="#CMSS17-70" transform="translate(173.121303 0) scale(0.996264)"/>
      <use xlink:href="#CMSS17-6d" transform="translate(221.326246 0) scale(0.996264)"/>
     </g>
    </g>
    <g id="line2d_40">
     <path d="M 373.577601 102.085973 
L 384.577601 102.085973 
L 395.577601 102.085973 
" style="fill: none; stroke: #9467bd; stroke-width: 1.5; stroke-linecap: square"/>
    </g>
    <g id="text_25">
     <!-- 80 ppm -->
     <g transform="translate(404.377601 105.935973) scale(0.11 -0.11)">
      <defs>
       <path id="CMSS17-38" d="M 1933 2222 
C 2419 2380 2669 2760 2669 3134 
C 2669 3722 2157 4229 1504 4229 
C 826 4229 333 3708 333 3144 
C 333 2780 576 2403 1069 2241 
C 442 1997 250 1512 250 1149 
C 250 446 819 -128 1498 -128 
C 2202 -128 2752 455 2752 1138 
C 2752 1557 2502 2000 1933 2222 
z
M 1504 2432 
C 1075 2432 787 2712 787 3136 
C 787 3566 1075 3840 1504 3840 
C 1901 3840 2214 3591 2214 3136 
C 2214 2687 1907 2432 1504 2432 
z
M 1504 267 
C 1139 267 749 517 749 1156 
C 749 1813 1184 2043 1498 2043 
C 1843 2043 2253 1800 2253 1156 
C 2253 491 1830 267 1504 267 
z
" transform="scale(0.015625)"/>
      </defs>
      <use xlink:href="#CMSS17-38" transform="scale(0.996264)"/>
      <use xlink:href="#CMSS17-30" transform="translate(46.843624 0) scale(0.996264)"/>
      <use xlink:href="#CMSS17-70" transform="translate(124.91636 0) scale(0.996264)"/>
      <use xlink:href="#CMSS17-70" transform="translate(173.121303 0) scale(0.996264)"/>
      <use xlink:href="#CMSS17-6d" transform="translate(221.326246 0) scale(0.996264)"/>
     </g>
    </g>
   </g>
  </g>
  <g id="axes_2">
   <g id="patch_8">
    <path d="M 115.2 259.2 
L 253.44 259.2 
L 253.44 155.52 
L 115.2 155.52 
z
" style="fill: #ffffff"/>
   </g>
   <g id="matplotlib.axis_3">
    <g id="xtick_10">
     <g id="line2d_41">
      <path d="M 121.356694 259.2 
L 121.356694 155.52 
" clip-path="url(#p03cb5ed0b5)" style="fill: none; stroke: #b0b0b0; stroke-width: 0.8; stroke-linecap: square"/>
     </g>
     <g id="line2d_42">
      <g>
       <use xlink:href="#m772993e6f5" x="121.356694" y="259.2" style="stroke: #000000; stroke-width: 0.8"/>
      </g>
     </g>
     <g id="text_26">
      <!-- $\mathdefault{0}$ -->
      <g transform="translate(118.616961 273.810347) scale(0.11 -0.11)">
       <use xlink:href="#CMR17-30" transform="scale(0.996264)"/>
      </g>
     </g>
    </g>
    <g id="xtick_11">
     <g id="line2d_43">
      <path d="M 172.133554 259.2 
L 172.133554 155.52 
" clip-path="url(#p03cb5ed0b5)" style="fill: none; stroke: #b0b0b0; stroke-width: 0.8; stroke-linecap: square"/>
     </g>
     <g id="line2d_44">
      <g>
       <use xlink:href="#m772993e6f5" x="172.133554" y="259.2" style="stroke: #000000; stroke-width: 0.8"/>
      </g>
     </g>
     <g id="text_27">
      <!-- $\mathdefault{20000}$ -->
      <g transform="translate(158.434886 273.810347) scale(0.11 -0.11)">
       <use xlink:href="#CMR17-32" transform="scale(0.996264)"/>
       <use xlink:href="#CMR17-30" transform="translate(45.690477 0) scale(0.996264)"/>
       <use xlink:href="#CMR17-30" transform="translate(91.380954 0) scale(0.996264)"/>
       <use xlink:href="#CMR17-30" transform="translate(137.071431 0) scale(0.996264)"/>
       <use xlink:href="#CMR17-30" transform="translate(182.761908 0) scale(0.996264)"/>
      </g>
     </g>
    </g>
    <g id="xtick_12">
     <g id="line2d_45">
      <path d="M 222.910413 259.2 
L 222.910413 155.52 
" clip-path="url(#p03cb5ed0b5)" style="fill: none; stroke: #b0b0b0; stroke-width: 0.8; stroke-linecap: square"/>
     </g>
     <g id="line2d_46">
      <g>
       <use xlink:href="#m772993e6f5" x="222.910413" y="259.2" style="stroke: #000000; stroke-width: 0.8"/>
      </g>
     </g>
     <g id="text_28">
      <!-- $\mathdefault{40000}$ -->
      <g transform="translate(209.211745 273.810347) scale(0.11 -0.11)">
       <defs>
        <path id="CMR17-34" d="M 2150 4122 
C 2150 4256 2144 4256 2029 4256 
L 128 1254 
L 128 1088 
L 1779 1088 
L 1779 457 
C 1779 224 1766 160 1318 160 
L 1197 160 
L 1197 0 
C 1402 0 1747 0 1965 0 
C 2182 0 2528 0 2733 0 
L 2733 160 
L 2611 160 
C 2163 160 2150 224 2150 457 
L 2150 1088 
L 2803 1088 
L 2803 1254 
L 2150 1254 
L 2150 4122 
z
M 1798 3703 
L 1798 1254 
L 256 1254 
L 1798 3703 
z
" transform="scale(0.015625)"/>
       </defs>
       <use xlink:href="#CMR17-34" transform="scale(0.996264)"/>
       <use xlink:href="#CMR17-30" transform="translate(45.690477 0) scale(0.996264)"/>
       <use xlink:href="#CMR17-30" transform="translate(91.380954 0) scale(0.996264)"/>
       <use xlink:href="#CMR17-30" transform="translate(137.071431 0) scale(0.996264)"/>
       <use xlink:href="#CMR17-30" transform="translate(182.761908 0) scale(0.996264)"/>
      </g>
     </g>
    </g>
    <g id="text_29">
     <!-- Frecuencia [Hz] -->
     <g transform="translate(148.878519 288.160419) scale(0.11 -0.11)">
      <use xlink:href="#CMSS17-46" transform="scale(0.996264)"/>
      <use xlink:href="#CMSS17-72" transform="translate(50.687105 0) scale(0.996264)"/>
      <use xlink:href="#CMSS17-65" transform="translate(82.596878 0) scale(0.996264)"/>
      <use xlink:href="#CMSS17-63" transform="translate(124.2357 0) scale(0.996264)"/>
      <use xlink:href="#CMSS17-75" transform="translate(165.874522 0) scale(0.996264)"/>
      <use xlink:href="#CMSS17-65" transform="translate(214.079465 0) scale(0.996264)"/>
      <use xlink:href="#CMSS17-6e" transform="translate(255.718287 0) scale(0.996264)"/>
      <use xlink:href="#CMSS17-63" transform="translate(303.92323 0) scale(0.996264)"/>
      <use xlink:href="#CMSS17-69" transform="translate(345.562052 0) scale(0.996264)"/>
      <use xlink:href="#CMSS17-61" transform="translate(367.742776 0) scale(0.996264)"/>
      <use xlink:href="#CMSS17-5b" transform="translate(443.893809 0) scale(0.996264)"/>
      <use xlink:href="#CMSS17-48" transform="translate(471.079247 0) scale(0.996264)"/>
      <use xlink:href="#CMSS17-7a" transform="translate(537.140767 0) scale(0.996264)"/>
      <use xlink:href="#CMSS17-5d" transform="translate(577.818638 0) scale(0.996264)"/>
     </g>
    </g>
   </g>
   <g id="matplotlib.axis_4">
    <g id="ytick_7">
     <g id="line2d_47">
      <path d="M 115.2 228.950659 
L 253.44 228.950659 
" clip-path="url(#p03cb5ed0b5)" style="fill: none; stroke: #b0b0b0; stroke-width: 0.8; stroke-linecap: square"/>
     </g>
     <g id="line2d_48">
      <g>
       <use xlink:href="#m33146f878f" x="115.2" y="228.950659" style="stroke: #000000; stroke-width: 0.8"/>
      </g>
     </g>
     <g id="text_30">
      <!-- $\mathdefault{1.05}$ -->
      <g transform="translate(88.717457 232.755833) scale(0.11 -0.11)">
       <use xlink:href="#CMR17-31" transform="scale(0.996264)"/>
       <use xlink:href="#CMMI12-3a" transform="translate(45.690477 0) scale(0.996264)"/>
       <use xlink:href="#CMR17-30" transform="translate(72.787654 0) scale(0.996264)"/>
       <use xlink:href="#CMR17-35" transform="translate(118.478131 0) scale(0.996264)"/>
      </g>
     </g>
    </g>
    <g id="ytick_8">
     <g id="line2d_49">
      <path d="M 115.2 195.721682 
L 253.44 195.721682 
" clip-path="url(#p03cb5ed0b5)" style="fill: none; stroke: #b0b0b0; stroke-width: 0.8; stroke-linecap: square"/>
     </g>
     <g id="line2d_50">
      <g>
       <use xlink:href="#m33146f878f" x="115.2" y="195.721682" style="stroke: #000000; stroke-width: 0.8"/>
      </g>
     </g>
     <g id="text_31">
      <!-- $\mathdefault{1.10}$ -->
      <g transform="translate(88.717457 199.526856) scale(0.11 -0.11)">
       <use xlink:href="#CMR17-31" transform="scale(0.996264)"/>
       <use xlink:href="#CMMI12-3a" transform="translate(45.690477 0) scale(0.996264)"/>
       <use xlink:href="#CMR17-31" transform="translate(72.787654 0) scale(0.996264)"/>
       <use xlink:href="#CMR17-30" transform="translate(118.478131 0) scale(0.996264)"/>
      </g>
     </g>
    </g>
    <g id="ytick_9">
     <g id="line2d_51">
      <path d="M 115.2 162.492705 
L 253.44 162.492705 
" clip-path="url(#p03cb5ed0b5)" style="fill: none; stroke: #b0b0b0; stroke-width: 0.8; stroke-linecap: square"/>
     </g>
     <g id="line2d_52">
      <g>
       <use xlink:href="#m33146f878f" x="115.2" y="162.492705" style="stroke: #000000; stroke-width: 0.8"/>
      </g>
     </g>
     <g id="text_32">
      <!-- $\mathdefault{1.15}$ -->
      <g transform="translate(88.717457 166.297879) scale(0.11 -0.11)">
       <use xlink:href="#CMR17-31" transform="scale(0.996264)"/>
       <use xlink:href="#CMMI12-3a" transform="translate(45.690477 0) scale(0.996264)"/>
       <use xlink:href="#CMR17-31" transform="translate(72.787654 0) scale(0.996264)"/>
       <use xlink:href="#CMR17-35" transform="translate(118.478131 0) scale(0.996264)"/>
      </g>
     </g>
    </g>
    <g id="text_33">
     <!-- Impedancia [$\Omega$] -->
     <g transform="translate(81.97773 242.276358) rotate(-90) scale(0.11 -0.11)">
      <use xlink:href="#CMSS17-49" transform="scale(0.996264)"/>
      <use xlink:href="#CMSS17-6d" transform="translate(25.783926 0) scale(0.996264)"/>
      <use xlink:href="#CMSS17-70" transform="translate(100.01318 0) scale(0.996264)"/>
      <use xlink:href="#CMSS17-65" transform="translate(150.820562 0) scale(0.996264)"/>
      <use xlink:href="#CMSS17-64" transform="translate(192.459384 0) scale(0.996264)"/>
      <use xlink:href="#CMSS17-61" transform="translate(240.664327 0) scale(0.996264)"/>
      <use xlink:href="#CMSS17-6e" transform="translate(285.586248 0) scale(0.996264)"/>
      <use xlink:href="#CMSS17-63" transform="translate(333.791191 0) scale(0.996264)"/>
      <use xlink:href="#CMSS17-69" transform="translate(375.430013 0) scale(0.996264)"/>
      <use xlink:href="#CMSS17-61" transform="translate(397.610736 0) scale(0.996264)"/>
      <use xlink:href="#CMSS17-5b" transform="translate(473.761769 0) scale(0.996264)"/>
      <use xlink:href="#CMR17-a" transform="translate(500.947208 0) scale(0.996264)"/>
      <use xlink:href="#CMSS17-5d" transform="translate(567.457088 0) scale(0.996264)"/>
     </g>
    </g>
    <g id="text_34">
     <!-- $\times\mathdefault{10^{6}}\mathdefault{}$ -->
     <g transform="translate(115.2 152.52) scale(0.11 -0.11)">
      <use xlink:href="#CMSY10-2" transform="scale(0.996264)"/>
      <use xlink:href="#CMR17-31" transform="translate(77.487468 0) scale(0.996264)"/>
      <use xlink:href="#CMR17-30" transform="translate(123.177945 0) scale(0.996264)"/>
      <use xlink:href="#CMR17-36" transform="translate(168.868422 36.153639) scale(0.697382)"/>
     </g>
    </g>
   </g>
   <g id="line2d_53">
    <path d="M 121.483636 254.487273 
L 122.753058 254.099432 
L 124.022479 249.829759 
L 125.291901 249.501905 
L 126.561322 248.407656 
L 127.830744 248.335399 
L 129.100165 247.885473 
L 130.369587 247.862111 
L 131.639008 247.421656 
L 132.90843 247.518762 
L 134.177851 247.097709 
L 135.447273 247.16661 
L 136.716694 246.798812 
L 137.986116 246.871844 
L 139.255537 246.587614 
L 140.524959 246.525362 
L 141.79438 246.217964 
L 143.063802 246.257538 
L 144.333223 246.033532 
L 145.602645 246.056309 
L 146.872066 245.877913 
L 148.141488 245.871914 
L 149.410909 245.739894 
L 150.680331 245.704957 
L 151.949752 245.617711 
L 153.219174 245.554715 
L 154.488595 245.544913 
L 155.758017 245.465835 
L 157.027438 245.490973 
L 158.29686 245.411654 
L 159.566281 243.427281 
L 160.835702 243.416433 
L 162.105124 243.424616 
L 163.374545 243.431176 
L 164.643967 243.438611 
L 165.913388 243.442606 
L 167.18281 243.445667 
L 168.452231 243.467434 
L 169.721653 243.465031 
L 170.991074 243.468833 
L 172.260496 243.472606 
L 173.529917 243.476388 
L 174.799339 243.486815 
L 176.06876 243.490832 
L 177.338182 243.494401 
L 178.607603 243.503774 
L 179.877025 243.506803 
L 181.146446 243.509916 
L 182.415868 243.514957 
L 183.685289 243.520446 
L 184.954711 243.529994 
L 186.224132 243.534646 
L 187.493554 243.539624 
L 188.762975 243.545609 
L 190.032397 243.549703 
L 191.301818 243.553005 
L 192.57124 243.559155 
L 193.840661 243.564351 
L 195.110083 243.602418 
L 196.379504 243.60548 
L 197.648926 243.608148 
L 198.918347 243.614829 
L 200.187769 243.617261 
L 201.45719 243.618804 
L 202.726612 243.622916 
L 203.996033 243.628097 
L 205.265455 243.633589 
L 206.534876 243.63904 
L 207.804298 243.644745 
L 209.073719 243.650802 
L 210.34314 243.65653 
L 211.612562 243.664557 
L 212.881983 243.670311 
L 214.151405 243.676353 
L 215.420826 243.686675 
L 216.690248 243.692677 
L 217.959669 243.698823 
L 219.229091 243.705653 
L 220.498512 243.711776 
L 221.767934 243.718864 
L 223.037355 243.72545 
L 224.306777 243.732226 
L 225.576198 243.739497 
L 226.84562 243.746342 
L 228.115041 243.756378 
L 229.384463 243.763057 
L 230.653884 243.770182 
L 231.923306 243.776785 
L 233.192727 243.784247 
L 234.462149 243.791869 
L 235.73157 243.802062 
L 237.000992 243.809329 
L 238.270413 243.816961 
L 239.539835 243.824871 
L 240.809256 243.832708 
L 242.078678 243.84073 
L 243.348099 243.847932 
L 244.617521 243.856811 
L 245.886942 243.871982 
L 247.156364 243.878986 
" clip-path="url(#p03cb5ed0b5)" style="fill: none; stroke: #1f77b4; stroke-width: 1.5; stroke-linecap: square"/>
   </g>
   <g id="line2d_54">
    <path d="M 121.483636 181.102849 
L 122.753058 183.229519 
L 124.022479 180.179353 
L 125.291901 179.121342 
L 126.561322 178.517045 
L 127.830744 178.246553 
L 129.100165 178.092127 
L 130.369587 177.958931 
L 131.639008 177.922732 
L 132.90843 177.84118 
L 134.177851 177.817363 
L 135.447273 177.756631 
L 136.716694 177.732718 
L 137.986116 177.675333 
L 139.255537 177.653101 
L 140.524959 177.598574 
L 141.79438 177.578407 
L 143.063802 177.52658 
L 144.333223 177.508239 
L 145.602645 177.459144 
L 146.872066 177.442334 
L 148.141488 177.396138 
L 149.410909 177.380525 
L 150.680331 177.337513 
L 151.949752 177.322701 
L 153.219174 177.283152 
L 154.488595 177.268715 
L 155.758017 177.232787 
L 157.027438 177.218342 
L 158.29686 177.186037 
L 159.566281 177.171301 
L 160.835702 177.142479 
L 162.105124 177.127288 
L 163.374545 177.101699 
L 164.643967 177.085992 
L 165.913388 177.06331 
L 167.18281 177.047112 
L 168.452231 177.026965 
L 169.721653 177.010362 
L 170.991074 176.992353 
L 172.260496 176.975463 
L 173.529917 176.959187 
L 174.799339 176.942132 
L 176.06876 176.927175 
L 177.338182 176.910045 
L 178.607603 176.895985 
L 179.877025 176.878793 
L 181.146446 176.865189 
L 182.415868 176.847801 
L 183.685289 176.834193 
L 184.954711 176.816222 
L 186.224132 176.802175 
L 187.493554 176.782869 
L 188.762975 176.7681 
L 190.032397 176.74644 
L 191.301818 176.730963 
L 192.57124 176.555469 
L 193.840661 176.539183 
L 195.110083 176.522645 
L 196.379504 176.513879 
L 197.648926 176.506147 
L 198.918347 176.494002 
L 200.187769 176.487031 
L 201.45719 176.473386 
L 202.726612 176.474378 
L 203.996033 176.464755 
L 205.265455 176.462516 
L 206.534876 176.453354 
L 207.804298 176.451393 
L 209.073719 176.443066 
L 210.34314 176.44121 
L 211.612562 176.433066 
L 212.881983 176.43271 
L 214.151405 176.427719 
L 215.420826 176.437394 
L 216.690248 176.423127 
L 217.959669 176.42884 
L 219.229091 176.416496 
L 220.498512 176.428771 
L 221.767934 176.415324 
L 223.037355 176.428071 
L 224.306777 176.429825 
L 225.576198 176.432693 
L 226.84562 176.416826 
L 228.115041 176.433539 
L 229.384463 176.415258 
L 230.653884 176.428222 
L 231.923306 176.427388 
L 233.192727 176.429051 
L 234.462149 176.433523 
L 235.73157 176.437679 
L 237.000992 176.426363 
L 238.270413 176.433692 
L 239.539835 176.429505 
L 240.809256 176.438174 
L 242.078678 176.434431 
L 243.348099 176.443634 
L 244.617521 176.444704 
L 245.886942 176.454073 
L 247.156364 176.448626 
" clip-path="url(#p03cb5ed0b5)" style="fill: none; stroke: #ff7f0e; stroke-width: 1.5; stroke-linecap: square"/>
   </g>
   <g id="line2d_55">
    <path d="M 121.483636 209.690757 
L 122.753058 185.523712 
L 124.022479 174.787089 
L 125.291901 173.65256 
L 126.561322 173.426946 
L 127.830744 173.075778 
L 129.100165 172.934342 
L 130.369587 172.525853 
L 131.639008 172.406056 
L 132.90843 172.413521 
L 134.177851 172.150373 
L 135.447273 172.198347 
L 136.716694 172.010252 
L 137.986116 172.018939 
L 139.255537 171.981599 
L 140.524959 171.957526 
L 141.79438 171.785457 
L 143.063802 171.766187 
L 144.333223 171.723376 
L 145.602645 171.716519 
L 146.872066 171.677776 
L 148.141488 171.680533 
L 149.410909 171.650837 
L 150.680331 171.645007 
L 151.949752 171.619026 
L 153.219174 171.61307 
L 154.488595 171.588791 
L 155.758017 171.582919 
L 157.027438 171.560115 
L 158.29686 171.554383 
L 159.566281 171.53288 
L 160.835702 171.52729 
L 162.105124 171.506911 
L 163.374545 171.501496 
L 164.643967 171.482071 
L 165.913388 171.476893 
L 167.18281 171.458266 
L 168.452231 171.453425 
L 169.721653 171.435461 
L 170.991074 171.431105 
L 172.260496 171.413689 
L 173.529917 171.410015 
L 174.799339 171.393057 
L 176.06876 171.390265 
L 177.338182 171.379222 
L 178.607603 171.384786 
L 179.877025 171.363366 
L 181.146446 171.365417 
L 182.415868 171.348383 
L 183.685289 171.350405 
L 184.954711 171.334358 
L 186.224132 171.336712 
L 187.493554 171.321436 
L 188.762975 171.324132 
L 190.032397 171.309497 
L 191.301818 171.312613 
L 192.57124 171.304154 
L 193.840661 171.311909 
L 195.110083 171.292459 
L 196.379504 171.299683 
L 197.648926 171.285295 
L 198.918347 171.292345 
L 200.187769 171.279367 
L 201.45719 171.286023 
L 202.726612 171.274236 
L 203.996033 171.280611 
L 205.265455 171.269783 
L 206.534876 171.276001 
L 207.804298 171.265971 
L 209.073719 171.272138 
L 210.34314 171.262827 
L 211.612562 171.26901 
L 212.881983 171.260408 
L 214.151405 171.266652 
L 215.420826 171.264091 
L 216.690248 171.272313 
L 217.959669 171.255551 
L 219.229091 171.266908 
L 220.498512 171.272405 
L 221.767934 171.276044 
L 223.037355 171.27779 
L 224.306777 171.282023 
L 225.576198 171.272667 
L 226.84562 171.279197 
L 228.115041 171.273369 
L 229.384463 171.284737 
L 230.653884 171.290625 
L 231.923306 171.294658 
L 233.192727 171.288895 
L 234.462149 171.295213 
L 235.73157 171.292589 
L 237.000992 171.300437 
L 238.270413 171.298967 
L 239.539835 171.307376 
L 240.809256 171.30672 
L 242.078678 171.315338 
L 243.348099 171.315434 
L 244.617521 171.324075 
L 245.886942 171.324873 
L 247.156364 171.333474 
" clip-path="url(#p03cb5ed0b5)" style="fill: none; stroke: #2ca02c; stroke-width: 1.5; stroke-linecap: square"/>
   </g>
   <g id="line2d_56">
    <path d="M 121.483636 178.967114 
L 122.753058 170.809951 
L 124.022479 167.535758 
L 125.291901 167.275892 
L 126.561322 167.011853 
L 127.830744 166.928126 
L 129.100165 166.916537 
L 130.369587 166.871419 
L 131.639008 166.851101 
L 132.90843 166.809478 
L 134.177851 166.286086 
L 135.447273 166.254416 
L 136.716694 166.247879 
L 137.986116 166.233862 
L 139.255537 166.197048 
L 140.524959 166.197726 
L 141.79438 166.159472 
L 143.063802 166.162555 
L 144.333223 166.155381 
L 145.602645 165.72276 
L 146.872066 165.726195 
L 148.141488 165.720574 
L 149.410909 165.720809 
L 150.680331 165.719009 
L 151.949752 165.718092 
L 153.219174 165.717483 
L 154.488595 165.693876 
L 155.758017 165.694934 
L 157.027438 165.695063 
L 158.29686 165.443375 
L 159.566281 165.439203 
L 160.835702 165.442701 
L 162.105124 165.444757 
L 163.374545 165.437553 
L 164.643967 165.440105 
L 165.913388 165.442009 
L 167.18281 165.444327 
L 168.452231 165.424477 
L 169.721653 165.427401 
L 170.991074 165.430663 
L 172.260496 165.268329 
L 173.529917 165.249674 
L 174.799339 165.257994 
L 176.06876 165.25879 
L 177.338182 165.26464 
L 178.607603 165.25799 
L 179.877025 165.262627 
L 181.146446 165.267475 
L 182.415868 165.255575 
L 183.685289 165.260624 
L 184.954711 165.266449 
L 186.224132 165.270097 
L 187.493554 165.274881 
L 188.762975 165.281173 
L 190.032397 165.286197 
L 191.301818 165.282542 
L 192.57124 165.289528 
L 193.840661 165.295797 
L 195.110083 165.310129 
L 196.379504 165.315202 
L 197.648926 165.319965 
L 198.918347 165.332902 
L 200.187769 165.338054 
L 201.45719 165.349088 
L 202.726612 165.356582 
L 203.996033 165.30912 
L 205.265455 165.323287 
L 206.534876 165.332199 
L 207.804298 165.340927 
L 209.073719 165.348548 
L 210.34314 165.390805 
L 211.612562 165.391846 
L 212.881983 165.398074 
L 214.151405 165.412371 
L 215.420826 165.416548 
L 216.690248 165.392531 
L 217.959669 165.406676 
L 219.229091 165.416426 
L 220.498512 165.463928 
L 221.767934 165.470707 
L 223.037355 165.477241 
L 224.306777 165.490202 
L 225.576198 165.501112 
L 226.84562 165.509346 
L 228.115041 165.52419 
L 229.384463 165.532712 
L 230.653884 165.538145 
L 231.923306 165.508092 
L 233.192727 165.519975 
L 234.462149 165.531183 
L 235.73157 165.566744 
L 237.000992 165.576787 
L 238.270413 165.587642 
L 239.539835 165.586999 
L 240.809256 165.595463 
L 242.078678 165.605687 
L 243.348099 165.607491 
L 244.617521 165.617486 
L 245.886942 165.627395 
L 247.156364 165.64038 
" clip-path="url(#p03cb5ed0b5)" style="fill: none; stroke: #d62728; stroke-width: 1.5; stroke-linecap: square"/>
   </g>
   <g id="line2d_57">
    <path d="M 121.483636 193.079316 
L 122.753058 168.51391 
L 124.022479 165.791014 
L 125.291901 163.343262 
L 126.561322 163.218258 
L 127.830744 163.03637 
L 129.100165 162.970707 
L 130.369587 162.744632 
L 131.639008 162.7047 
L 132.90843 161.55576 
L 134.177851 161.5316 
L 135.447273 161.482068 
L 136.716694 161.462305 
L 137.986116 161.296662 
L 139.255537 161.270815 
L 140.524959 161.247129 
L 141.79438 161.237264 
L 143.063802 161.207646 
L 144.333223 161.186411 
L 145.602645 161.182083 
L 146.872066 161.151697 
L 148.141488 161.146545 
L 149.410909 161.142757 
L 150.680331 161.137609 
L 151.949752 161.135264 
L 153.219174 161.115706 
L 154.488595 161.115462 
L 155.758017 161.108935 
L 157.027438 161.107906 
L 158.29686 161.086802 
L 159.566281 161.089369 
L 160.835702 161.037518 
L 162.105124 161.042329 
L 163.374545 160.995547 
L 164.643967 160.995462 
L 165.913388 160.991546 
L 167.18281 160.989241 
L 168.452231 160.987119 
L 169.721653 160.986939 
L 170.991074 160.882462 
L 172.260496 160.870921 
L 173.529917 160.861579 
L 174.799339 160.849559 
L 176.06876 160.841657 
L 177.338182 160.831443 
L 178.607603 160.822456 
L 179.877025 160.814673 
L 181.146446 160.232727 
L 182.415868 160.258166 
L 183.685289 160.256413 
L 184.954711 160.259481 
L 186.224132 160.262649 
L 187.493554 160.267545 
L 188.762975 160.265053 
L 190.032397 160.270896 
L 191.301818 160.276116 
L 192.57124 160.282426 
L 193.840661 160.278151 
L 195.110083 160.28392 
L 196.379504 160.290033 
L 197.648926 160.278851 
L 198.918347 160.285489 
L 200.187769 160.291893 
L 201.45719 160.267911 
L 202.726612 160.27469 
L 203.996033 160.28099 
L 205.265455 160.287691 
L 206.534876 160.293881 
L 207.804298 160.291225 
L 209.073719 160.299271 
L 210.34314 160.306854 
L 211.612562 160.314336 
L 212.881983 160.322298 
L 214.151405 160.324794 
L 215.420826 160.332812 
L 216.690248 160.340826 
L 217.959669 160.360117 
L 219.229091 160.361785 
L 220.498512 160.36997 
L 221.767934 160.343516 
L 223.037355 160.354571 
L 224.306777 160.365885 
L 225.576198 160.371482 
L 226.84562 160.384355 
L 228.115041 160.405871 
L 229.384463 160.415393 
L 230.653884 160.424342 
L 231.923306 160.409882 
L 233.192727 160.420172 
L 234.462149 160.431069 
L 235.73157 160.456995 
L 237.000992 160.458588 
L 238.270413 160.465917 
L 239.539835 160.479029 
L 240.809256 160.491348 
L 242.078678 160.503128 
L 243.348099 160.51743 
L 244.617521 160.484562 
L 245.886942 160.502518 
L 247.156364 160.515939 
" clip-path="url(#p03cb5ed0b5)" style="fill: none; stroke: #9467bd; stroke-width: 1.5; stroke-linecap: square"/>
   </g>
   <g id="patch_9">
    <path d="M 115.2 259.2 
L 115.2 155.52 
" style="fill: none; stroke: #000000; stroke-width: 0.8; stroke-linejoin: miter; stroke-linecap: square"/>
   </g>
   <g id="patch_10">
    <path d="M 253.44 259.2 
L 253.44 155.52 
" style="fill: none; stroke: #000000; stroke-width: 0.8; stroke-linejoin: miter; stroke-linecap: square"/>
   </g>
   <g id="patch_11">
    <path d="M 115.2 259.2 
L 253.44 259.2 
" style="fill: none; stroke: #000000; stroke-width: 0.8; stroke-linejoin: miter; stroke-linecap: square"/>
   </g>
   <g id="patch_12">
    <path d="M 115.2 155.52 
L 253.44 155.52 
" style="fill: none; stroke: #000000; stroke-width: 0.8; stroke-linejoin: miter; stroke-linecap: square"/>
   </g>
  </g>
 </g>
 <defs>
  <clipPath id="p9ace5cf9b6">
   <rect x="47.84198" y="27.012395" width="401.07802" height="275.00746"/>
  </clipPath>
  <clipPath id="p03cb5ed0b5">
   <rect x="115.2" y="155.52" width="138.24" height="103.68"/>
  </clipPath>
 </defs>
</svg>
