<?xml version="1.0" encoding="UTF-8" standalone="no"?>
<!-- Created with Inkscape (http://www.inkscape.org/) -->

<svg
   width="210mm"
   height="297mm"
   viewBox="0 0 210 297"
   version="1.1"
   id="svg5"
   inkscape:export-filename="/home/maxp/Tesis/presentacion_final/images/slot_line_dimensiones.png"
   inkscape:export-xdpi="96"
   inkscape:export-ydpi="96"
   inkscape:version="1.1.2 (0a00cf5339, 2022-02-04)"
   sodipodi:docname="slot_line.svg"
   xmlns:inkscape="http://www.inkscape.org/namespaces/inkscape"
   xmlns:sodipodi="http://sodipodi.sourceforge.net/DTD/sodipodi-0.dtd"
   xmlns="http://www.w3.org/2000/svg"
   xmlns:svg="http://www.w3.org/2000/svg">
  <style
     id="style2411">
.measure-arrow
{
}
.measure-label
{

}
.measure-line
{
}</style>
  <sodipodi:namedview
     id="namedview7"
     pagecolor="#ffffff"
     bordercolor="#666666"
     borderopacity="1.0"
     inkscape:showpageshadow="2"
     inkscape:pageopacity="0.0"
     inkscape:pagecheckerboard="0"
     inkscape:deskcolor="#d1d1d1"
     inkscape:document-units="mm"
     showgrid="false"
     inkscape:zoom="1.0973349"
     inkscape:cx="575.94085"
     inkscape:cy="450.63727"
     inkscape:window-width="1920"
     inkscape:window-height="1048"
     inkscape:window-x="0"
     inkscape:window-y="32"
     inkscape:window-maximized="0"
     inkscape:current-layer="layer1"
     inkscape:pageshadow="2" />
  <defs
     id="defs2">
    <inkscape:path-effect
       effect="measure_segments"
       linked_items=""
       id="path-effect2463"
       is_visible="true"
       lpeversion="1"
       unit="mm"
       orientation="parallel"
       coloropacity="#000000ff"
       fontbutton="Sans 10"
       precision="2"
       fix_overlaps="0"
       position="5"
       text_top_bottom="-3"
       helpline_distance="-2"
       helpline_overlap="2"
       line_width="0.25"
       scale="1"
       format="w"
       blacklist=""
       active_projection="false"
       whitelist="false"
       showindex="false"
       arrows_outside="true"
       flip_side="false"
       scale_sensitive="true"
       local_locale="true"
       rotate_anotation="true"
       hide_back="true"
       hide_arrows="false"
       smallx100="false"
       distance_projection="20"
       angle_projection="0"
       avoid_overlapping="true"
       onbbox="false"
       bboxonly="false"
       centers="false"
       maxmin="false"
       helpdata="&lt;b&gt;&lt;big&gt;General&lt;/big&gt;&lt;/b&gt; Display and position dimension lines and labels  &lt;b&gt;&lt;big&gt;Projection&lt;/big&gt;&lt;/b&gt; Show a line with measurements based on the selected items  &lt;b&gt;&lt;big&gt;Options&lt;/big&gt;&lt;/b&gt; Options for color, precision, label formatting and display  &lt;b&gt;&lt;big&gt;Tips&lt;/big&gt;&lt;/b&gt; &lt;b&gt;&lt;i&gt;Custom styling:&lt;/i&gt;&lt;/b&gt; To further customize the styles, use the XML editor to find out the class or ID, then use the Style dialog to apply a new style. &lt;b&gt;&lt;i&gt;Blacklists:&lt;/i&gt;&lt;/b&gt; allow to hide some segments or projection steps. &lt;b&gt;&lt;i&gt;Multiple Measure LPEs:&lt;/i&gt;&lt;/b&gt; In the same object, in conjunction with blacklists,this allows for labels and measurements with different orientations or additional projections. &lt;b&gt;&lt;i&gt;Set Defaults:&lt;/i&gt;&lt;/b&gt; For every LPE, default values can be set at the bottom." />
    <inkscape:path-effect
       effect="measure_segments"
       linked_items=""
       id="path-effect2455"
       is_visible="true"
       lpeversion="1"
       unit="mm"
       orientation="parallel"
       coloropacity="#000000ff"
       fontbutton="Sans 10"
       precision="2"
       fix_overlaps="0"
       position="5"
       text_top_bottom="-3"
       helpline_distance="-2"
       helpline_overlap="2"
       line_width="0.25"
       scale="1"
       format="w"
       blacklist=""
       active_projection="false"
       whitelist="false"
       showindex="false"
       arrows_outside="true"
       flip_side="false"
       scale_sensitive="true"
       local_locale="true"
       rotate_anotation="true"
       hide_back="true"
       hide_arrows="false"
       smallx100="false"
       distance_projection="20"
       angle_projection="0"
       avoid_overlapping="true"
       onbbox="false"
       bboxonly="false"
       centers="false"
       maxmin="false"
       helpdata="&lt;b&gt;&lt;big&gt;General&lt;/big&gt;&lt;/b&gt; Display and position dimension lines and labels  &lt;b&gt;&lt;big&gt;Projection&lt;/big&gt;&lt;/b&gt; Show a line with measurements based on the selected items  &lt;b&gt;&lt;big&gt;Options&lt;/big&gt;&lt;/b&gt; Options for color, precision, label formatting and display  &lt;b&gt;&lt;big&gt;Tips&lt;/big&gt;&lt;/b&gt; &lt;b&gt;&lt;i&gt;Custom styling:&lt;/i&gt;&lt;/b&gt; To further customize the styles, use the XML editor to find out the class or ID, then use the Style dialog to apply a new style. &lt;b&gt;&lt;i&gt;Blacklists:&lt;/i&gt;&lt;/b&gt; allow to hide some segments or projection steps. &lt;b&gt;&lt;i&gt;Multiple Measure LPEs:&lt;/i&gt;&lt;/b&gt; In the same object, in conjunction with blacklists,this allows for labels and measurements with different orientations or additional projections. &lt;b&gt;&lt;i&gt;Set Defaults:&lt;/i&gt;&lt;/b&gt; For every LPE, default values can be set at the bottom." />
    <inkscape:path-effect
       effect="measure_segments"
       linked_items=""
       id="path-effect2447"
       is_visible="true"
       lpeversion="1"
       unit="mm"
       orientation="parallel"
       coloropacity="#000000ff"
       fontbutton="Sans 10"
       precision="2"
       fix_overlaps="0"
       position="5"
       text_top_bottom="8"
       helpline_distance="-2"
       helpline_overlap="2"
       line_width="0.25"
       scale="1"
       format="h"
       blacklist=""
       active_projection="false"
       whitelist="false"
       showindex="false"
       arrows_outside="true"
       flip_side="false"
       scale_sensitive="true"
       local_locale="true"
       rotate_anotation="true"
       hide_back="true"
       hide_arrows="false"
       smallx100="false"
       distance_projection="20"
       angle_projection="0"
       avoid_overlapping="true"
       onbbox="false"
       bboxonly="false"
       centers="false"
       maxmin="false"
       helpdata="&lt;b&gt;&lt;big&gt;General&lt;/big&gt;&lt;/b&gt; Display and position dimension lines and labels  &lt;b&gt;&lt;big&gt;Projection&lt;/big&gt;&lt;/b&gt; Show a line with measurements based on the selected items  &lt;b&gt;&lt;big&gt;Options&lt;/big&gt;&lt;/b&gt; Options for color, precision, label formatting and display  &lt;b&gt;&lt;big&gt;Tips&lt;/big&gt;&lt;/b&gt; &lt;b&gt;&lt;i&gt;Custom styling:&lt;/i&gt;&lt;/b&gt; To further customize the styles, use the XML editor to find out the class or ID, then use the Style dialog to apply a new style. &lt;b&gt;&lt;i&gt;Blacklists:&lt;/i&gt;&lt;/b&gt; allow to hide some segments or projection steps. &lt;b&gt;&lt;i&gt;Multiple Measure LPEs:&lt;/i&gt;&lt;/b&gt; In the same object, in conjunction with blacklists,this allows for labels and measurements with different orientations or additional projections. &lt;b&gt;&lt;i&gt;Set Defaults:&lt;/i&gt;&lt;/b&gt; For every LPE, default values can be set at the bottom." />
    <inkscape:path-effect
       effect="measure_segments"
       linked_items=""
       id="path-effect2439"
       is_visible="true"
       lpeversion="1"
       unit="mm"
       orientation="parallel"
       coloropacity="#000000ff"
       fontbutton="Sans 10"
       precision="2"
       fix_overlaps="0"
       position="5"
       text_top_bottom="-3"
       helpline_distance="-3"
       helpline_overlap="2"
       line_width="0.25"
       scale="1"
       format="a"
       blacklist=""
       active_projection="false"
       whitelist="false"
       showindex="false"
       arrows_outside="false"
       flip_side="false"
       scale_sensitive="true"
       local_locale="true"
       rotate_anotation="true"
       hide_back="true"
       hide_arrows="false"
       smallx100="false"
       distance_projection="20"
       angle_projection="0"
       avoid_overlapping="true"
       onbbox="false"
       bboxonly="false"
       centers="false"
       maxmin="false"
       helpdata="&lt;b&gt;&lt;big&gt;General&lt;/big&gt;&lt;/b&gt; Display and position dimension lines and labels  &lt;b&gt;&lt;big&gt;Projection&lt;/big&gt;&lt;/b&gt; Show a line with measurements based on the selected items  &lt;b&gt;&lt;big&gt;Options&lt;/big&gt;&lt;/b&gt; Options for color, precision, label formatting and display  &lt;b&gt;&lt;big&gt;Tips&lt;/big&gt;&lt;/b&gt; &lt;b&gt;&lt;i&gt;Custom styling:&lt;/i&gt;&lt;/b&gt; To further customize the styles, use the XML editor to find out the class or ID, then use the Style dialog to apply a new style. &lt;b&gt;&lt;i&gt;Blacklists:&lt;/i&gt;&lt;/b&gt; allow to hide some segments or projection steps. &lt;b&gt;&lt;i&gt;Multiple Measure LPEs:&lt;/i&gt;&lt;/b&gt; In the same object, in conjunction with blacklists,this allows for labels and measurements with different orientations or additional projections. &lt;b&gt;&lt;i&gt;Set Defaults:&lt;/i&gt;&lt;/b&gt; For every LPE, default values can be set at the bottom." />
    <inkscape:path-effect
       effect="measure_segments"
       linked_items=""
       id="path-effect2431"
       is_visible="true"
       lpeversion="1"
       unit="mm"
       orientation="parallel"
       coloropacity="#000000ff"
       fontbutton="Sans 10"
       precision="2"
       fix_overlaps="0"
       position="5"
       text_top_bottom="-9"
       helpline_distance="0"
       helpline_overlap="2"
       line_width="0.25"
       scale="1"
       format="s"
       blacklist=""
       active_projection="false"
       whitelist="false"
       showindex="false"
       arrows_outside="false"
       flip_side="false"
       scale_sensitive="true"
       local_locale="true"
       rotate_anotation="true"
       hide_back="true"
       hide_arrows="false"
       smallx100="false"
       distance_projection="20"
       angle_projection="0"
       avoid_overlapping="true"
       onbbox="false"
       bboxonly="false"
       centers="false"
       maxmin="false"
       helpdata="&lt;b&gt;&lt;big&gt;General&lt;/big&gt;&lt;/b&gt; Display and position dimension lines and labels  &lt;b&gt;&lt;big&gt;Projection&lt;/big&gt;&lt;/b&gt; Show a line with measurements based on the selected items  &lt;b&gt;&lt;big&gt;Options&lt;/big&gt;&lt;/b&gt; Options for color, precision, label formatting and display  &lt;b&gt;&lt;big&gt;Tips&lt;/big&gt;&lt;/b&gt; &lt;b&gt;&lt;i&gt;Custom styling:&lt;/i&gt;&lt;/b&gt; To further customize the styles, use the XML editor to find out the class or ID, then use the Style dialog to apply a new style. &lt;b&gt;&lt;i&gt;Blacklists:&lt;/i&gt;&lt;/b&gt; allow to hide some segments or projection steps. &lt;b&gt;&lt;i&gt;Multiple Measure LPEs:&lt;/i&gt;&lt;/b&gt; In the same object, in conjunction with blacklists,this allows for labels and measurements with different orientations or additional projections. &lt;b&gt;&lt;i&gt;Set Defaults:&lt;/i&gt;&lt;/b&gt; For every LPE, default values can be set at the bottom." />
    <inkscape:path-effect
       effect="measure_segments"
       linked_items=""
       id="path-effect2423"
       is_visible="true"
       lpeversion="1"
       unit="mm"
       orientation="parallel"
       coloropacity="#000000ff"
       fontbutton="Sans 10"
       precision="2"
       fix_overlaps="0"
       position="5"
       text_top_bottom="0"
       helpline_distance="0"
       helpline_overlap="2"
       line_width="0.25"
       scale="1"
       format="{measure}{unit}"
       blacklist=""
       active_projection="false"
       whitelist="false"
       showindex="false"
       arrows_outside="false"
       flip_side="false"
       scale_sensitive="true"
       local_locale="true"
       rotate_anotation="true"
       hide_back="true"
       hide_arrows="false"
       smallx100="false"
       distance_projection="20"
       angle_projection="0"
       avoid_overlapping="true"
       onbbox="false"
       bboxonly="false"
       centers="false"
       maxmin="false"
       helpdata="&lt;b&gt;&lt;big&gt;General&lt;/big&gt;&lt;/b&gt; Display and position dimension lines and labels  &lt;b&gt;&lt;big&gt;Projection&lt;/big&gt;&lt;/b&gt; Show a line with measurements based on the selected items  &lt;b&gt;&lt;big&gt;Options&lt;/big&gt;&lt;/b&gt; Options for color, precision, label formatting and display  &lt;b&gt;&lt;big&gt;Tips&lt;/big&gt;&lt;/b&gt; &lt;b&gt;&lt;i&gt;Custom styling:&lt;/i&gt;&lt;/b&gt; To further customize the styles, use the XML editor to find out the class or ID, then use the Style dialog to apply a new style. &lt;b&gt;&lt;i&gt;Blacklists:&lt;/i&gt;&lt;/b&gt; allow to hide some segments or projection steps. &lt;b&gt;&lt;i&gt;Multiple Measure LPEs:&lt;/i&gt;&lt;/b&gt; In the same object, in conjunction with blacklists,this allows for labels and measurements with different orientations or additional projections. &lt;b&gt;&lt;i&gt;Set Defaults:&lt;/i&gt;&lt;/b&gt; For every LPE, default values can be set at the bottom." />
    <inkscape:path-effect
       effect="measure_segments"
       linked_items=""
       id="path-effect2409"
       is_visible="true"
       lpeversion="1"
       unit="mm"
       orientation="parallel"
       coloropacity="#000000ff"
       fontbutton="Sans 10"
       precision="2"
       fix_overlaps="0"
       position="5"
       text_top_bottom="3"
       helpline_distance="-2"
       helpline_overlap="2"
       line_width="0.25"
       scale="1"
       format="l"
       blacklist=""
       active_projection="false"
       whitelist="false"
       showindex="false"
       arrows_outside="false"
       flip_side="false"
       scale_sensitive="true"
       local_locale="true"
       rotate_anotation="false"
       hide_back="true"
       hide_arrows="false"
       smallx100="false"
       distance_projection="20"
       angle_projection="0"
       avoid_overlapping="true"
       onbbox="false"
       bboxonly="false"
       centers="false"
       maxmin="false"
       helpdata="&lt;b&gt;&lt;big&gt;General&lt;/big&gt;&lt;/b&gt; Display and position dimension lines and labels  &lt;b&gt;&lt;big&gt;Projection&lt;/big&gt;&lt;/b&gt; Show a line with measurements based on the selected items  &lt;b&gt;&lt;big&gt;Options&lt;/big&gt;&lt;/b&gt; Options for color, precision, label formatting and display  &lt;b&gt;&lt;big&gt;Tips&lt;/big&gt;&lt;/b&gt; &lt;b&gt;&lt;i&gt;Custom styling:&lt;/i&gt;&lt;/b&gt; To further customize the styles, use the XML editor to find out the class or ID, then use the Style dialog to apply a new style. &lt;b&gt;&lt;i&gt;Blacklists:&lt;/i&gt;&lt;/b&gt; allow to hide some segments or projection steps. &lt;b&gt;&lt;i&gt;Multiple Measure LPEs:&lt;/i&gt;&lt;/b&gt; In the same object, in conjunction with blacklists,this allows for labels and measurements with different orientations or additional projections. &lt;b&gt;&lt;i&gt;Set Defaults:&lt;/i&gt;&lt;/b&gt; For every LPE, default values can be set at the bottom." />
    <marker
       id="ArrowDIN-start"
       class="path2403 path-effect2463 measure-arrow-marker"
       inkscape:stockid="ArrowDIN-start"
       orient="auto"
       refX="0.0"
       refY="0.0"
       sodipodi:insensitive="true">
      <path
         d="M -8,0 8,-2.11 8,2.11 z"
         class="path2403 path-effect2463 measure-arrow"
         id="ArrowDIN-start_path"
         style="fill:context-stroke;;fill-opacity:1;stroke:none" />
    </marker>
    <marker
       id="ArrowDIN-end"
       class="path2403 path-effect2463 measure-arrow-marker"
       inkscape:stockid="ArrowDIN-end"
       orient="auto"
       refX="0.0"
       refY="0.0"
       sodipodi:insensitive="true">
      <path
         d="M 8,0 -8,2.11 -8,-2.11 z"
         class="path2403 path-effect2463 measure-arrow"
         id="ArrowDIN-end_path"
         style="fill:context-stroke;;fill-opacity:1;stroke:none" />
    </marker>
    <marker
       id="ArrowDINout-start"
       class="path2403 path-effect2463 measure-arrow-marker"
       inkscape:stockid="ArrowDINout-start"
       orient="auto"
       refX="0.0"
       refY="0.0"
       sodipodi:insensitive="true">
      <path
         d="M 0,0 -16,2.11 -16,0.5 -26,0.5 -26,-0.5 -16,-0.5 -16,-2.11 z"
         class="path2403 path-effect2463 measure-arrow"
         id="ArrowDINout-start_path"
         style="fill:context-stroke;;fill-opacity:1;stroke:none" />
    </marker>
    <marker
       id="ArrowDINout-end"
       class="path2403 path-effect2463 measure-arrow-marker"
       inkscape:stockid="ArrowDINout-end"
       orient="auto"
       refX="0.0"
       refY="0.0"
       sodipodi:insensitive="true">
      <path
         d="M 0,0 16,-2.11 16,-0.5 26,-0.5 26,0.5 16,0.5 16,2.11 z"
         class="path2403 path-effect2463 measure-arrow"
         id="ArrowDINout-end_path"
         style="fill:context-stroke;;fill-opacity:1;stroke:none" />
    </marker>
    <inkscape:path-effect
       effect="measure_segments"
       linked_items=""
       id="path-effect2447-0"
       is_visible="true"
       lpeversion="1"
       unit="mm"
       orientation="parallel"
       coloropacity="#000000ff"
       fontbutton="Sans 10"
       precision="2"
       fix_overlaps="0"
       position="5"
       text_top_bottom="-16"
       helpline_distance="-1"
       helpline_overlap="17"
       line_width="0.25"
       scale="1"
       format="g"
       blacklist=""
       active_projection="false"
       whitelist="false"
       showindex="false"
       arrows_outside="true"
       flip_side="false"
       scale_sensitive="true"
       local_locale="true"
       rotate_anotation="true"
       hide_back="true"
       hide_arrows="false"
       smallx100="false"
       distance_projection="20"
       angle_projection="0"
       avoid_overlapping="true"
       onbbox="false"
       bboxonly="false"
       centers="false"
       maxmin="false"
       helpdata="&lt;b&gt;&lt;big&gt;General&lt;/big&gt;&lt;/b&gt; Display and position dimension lines and labels  &lt;b&gt;&lt;big&gt;Projection&lt;/big&gt;&lt;/b&gt; Show a line with measurements based on the selected items  &lt;b&gt;&lt;big&gt;Options&lt;/big&gt;&lt;/b&gt; Options for color, precision, label formatting and display  &lt;b&gt;&lt;big&gt;Tips&lt;/big&gt;&lt;/b&gt; &lt;b&gt;&lt;i&gt;Custom styling:&lt;/i&gt;&lt;/b&gt; To further customize the styles, use the XML editor to find out the class or ID, then use the Style dialog to apply a new style. &lt;b&gt;&lt;i&gt;Blacklists:&lt;/i&gt;&lt;/b&gt; allow to hide some segments or projection steps. &lt;b&gt;&lt;i&gt;Multiple Measure LPEs:&lt;/i&gt;&lt;/b&gt; In the same object, in conjunction with blacklists,this allows for labels and measurements with different orientations or additional projections. &lt;b&gt;&lt;i&gt;Set Defaults:&lt;/i&gt;&lt;/b&gt; For every LPE, default values can be set at the bottom." />
    <marker
       id="ArrowDINout-start-8"
       class="path2407 path-effect2447 measure-arrow-marker"
       inkscape:stockid="ArrowDINout-start"
       orient="auto"
       refX="0.0"
       refY="0.0"
       sodipodi:insensitive="true">
      <path
         d="M 0,0 -16,2.11 -16,0.5 -26,0.5 -26,-0.5 -16,-0.5 -16,-2.11 z"
         class="path2407 path-effect2447 measure-arrow"
         id="ArrowDINout-start_path-4"
         style="fill:context-stroke;;fill-opacity:1;stroke:none" />
    </marker>
    <marker
       id="ArrowDINout-end-1"
       class="path2407 path-effect2447 measure-arrow-marker"
       inkscape:stockid="ArrowDINout-end"
       orient="auto"
       refX="0.0"
       refY="0.0"
       sodipodi:insensitive="true">
      <path
         d="M 0,0 16,-2.11 16,-0.5 26,-0.5 26,0.5 16,0.5 16,2.11 z"
         class="path2407 path-effect2447 measure-arrow"
         id="ArrowDINout-end_path-4"
         style="fill:context-stroke;;fill-opacity:1;stroke:none" />
    </marker>
  </defs>
  <g
     inkscape:label="Layer 1"
     inkscape:groupmode="layer"
     id="layer1">
    <rect
       style="fill:#c87137;fill-rule:evenodd;stroke-width:0.264583;fill-opacity:1"
       id="rect111"
       width="72"
       height="100"
       x="65"
       y="30"
       inkscape:export-filename="slot_line_top.png"
       inkscape:export-xdpi="96"
       inkscape:export-ydpi="96" />
    <rect
       style="fill:#ffcc00;fill-rule:evenodd;stroke-width:0.23665"
       id="rect113"
       width="72"
       height="20"
       x="175"
       y="70"
       inkscape:export-filename="slot_line_front.png"
       inkscape:export-xdpi="96"
       inkscape:export-ydpi="96" />
    <rect
       style="fill:#00ff00;fill-rule:evenodd;stroke-width:0.291688"
       id="rect227"
       width="42"
       height="100"
       x="80"
       y="30" />
    <rect
       style="fill:#c87137;fill-opacity:1;stroke-width:0.263321"
       id="rect285"
       width="15"
       height="3"
       x="175"
       y="67"
       ry="0" />
    <rect
       style="fill:#c87137;stroke-width:0.263321"
       id="rect285-3"
       width="15"
       height="3"
       x="232"
       y="67" />
    <rect
       style="fill:#00ff00;stroke:#00ff00;stroke-width:0.114042;stroke-opacity:1"
       id="rect223"
       width="41.88596"
       height="0.38595819"
       x="190.05702"
       y="67.057022" />
    <path
       style="fill:none;stroke:#000000;stroke-width:0.265283px;stroke-linecap:butt;stroke-linejoin:miter;stroke-opacity:1"
       d="m 63.132641,147 c 0,23.38103 0,22.99962 0,22.99962"
       id="path2393"
       inkscape:path-effect="#path-effect2431"
       inkscape:original-d="m 63.132641,147 c 0,23.38103 0,22.99962 0,22.99962"
       class="UnoptimicedTransforms"
       transform="matrix(1,0,0,0.86956519,104.8,-57.826083)" />
    <path
       style="fill:none;stroke:#000000;stroke-width:0.264513px;stroke-linecap:butt;stroke-linejoin:miter;stroke-opacity:1"
       d="m 139.13226,30 c 0,99.92035 0,100 0,100"
       id="path2395"
       inkscape:path-effect="#path-effect2409"
       inkscape:original-d="m 139.13226,30 c 0,99.92035 0,100 0,100"
       class="UnoptimicedTransforms" />
    <path
       style="fill:none;stroke:#000000;stroke-width:0.268249px;stroke-linecap:butt;stroke-linejoin:miter;stroke-opacity:1"
       d="m 80,145.13412 c 42,0 42,0 42,0"
       id="path2399"
       inkscape:path-effect="#path-effect2439"
       inkscape:original-d="m 80,145.13412 c 42,0 42,0 42,0"
       class="UnoptimicedTransforms"
       transform="translate(110,-80.999995)" />
    <path
       style="fill:none;stroke:#000000;stroke-width:0.285939px;stroke-linecap:butt;stroke-linejoin:miter;stroke-opacity:1"
       d="m 65,28.14297 c 15,0 15,0 15,0"
       id="path2403"
       inkscape:path-effect="#path-effect2463"
       inkscape:original-d="m 65,28.14297 c 15,0 15,0 15,0"
       class="UnoptimicedTransforms" />
    <path
       style="fill:none;stroke:#000000;stroke-width:0.275051px;stroke-linecap:butt;stroke-linejoin:miter;stroke-opacity:1"
       d="m 122,28.137525 c 15,0 15,0 15,0"
       id="path2405"
       inkscape:path-effect="#path-effect2455"
       inkscape:original-d="m 122,28.137525 c 15,0 15,0 15,0"
       class="UnoptimicedTransforms" />
    <path
       style="fill:none;stroke:#000000;stroke-width:0.296308px;stroke-linecap:butt;stroke-linejoin:miter;stroke-opacity:1"
       d="m 139.14815,147 c 0,3 0,3 0,3"
       id="path2407"
       inkscape:path-effect="#path-effect2447"
       inkscape:original-d="m 139.14815,147 c 0,3 0,3 0,3"
       class="UnoptimicedTransforms"
       transform="translate(109.7037,-80)" />
    <text
       xml:space="preserve"
       style="font-style:normal;font-weight:normal;font-size:10.5833px;line-height:1.25;font-family:sans-serif;fill:#000000;fill-opacity:1;stroke:none;stroke-width:0.264583"
       x="65"
       y="141.7999"
       id="text919"><tspan
         sodipodi:role="line"
         id="tspan917"
         style="stroke-width:0.264583"
         x="65"
         y="141.7999">Vista superior</tspan></text>
    <text
       xml:space="preserve"
       style="font-style:normal;font-weight:normal;font-size:10.5833px;line-height:1.25;font-family:sans-serif;fill:#000000;fill-opacity:1;stroke:none;stroke-width:0.264583"
       x="175"
       y="102.09622"
       id="text923"><tspan
         sodipodi:role="line"
         id="tspan921"
         style="stroke-width:0.264583"
         x="175"
         y="102.09622">Vista frontal</tspan></text>
    <text
       xml:space="preserve"
       style="font-style:normal;font-weight:normal;font-size:10.5833px;line-height:1.25;font-family:sans-serif;fill:#000000;fill-opacity:1;stroke:none;stroke-width:0.264583"
       x="82.496841"
       y="81.748413"
       id="text1087"><tspan
         sodipodi:role="line"
         id="tspan1085"
         style="stroke-width:0.264583"
         x="82.496841"
         y="81.748413">Película</tspan><tspan
         sodipodi:role="line"
         style="stroke-width:0.264583"
         x="82.496841"
         y="94.977539"
         id="tspan2963">de</tspan><tspan
         sodipodi:role="line"
         style="stroke-width:0.264583"
         x="82.496841"
         y="108.20667"
         id="tspan2965">polímero</tspan></text>
    <text
       xml:space="preserve"
       style="font-style:normal;font-weight:normal;font-size:10.5833px;line-height:1.25;font-family:sans-serif;fill:#000000;fill-opacity:1;stroke:none;stroke-width:0.264583"
       x="-119.36109"
       y="77.043304"
       id="text1091"
       transform="rotate(-90)"><tspan
         sodipodi:role="line"
         id="tspan1089"
         style="stroke-width:0.264583"
         x="-119.36109"
         y="77.043304">Conductor</tspan></text>
    <text
       xml:space="preserve"
       style="font-style:normal;font-weight:normal;font-size:10.5833px;line-height:1.25;font-family:sans-serif;fill:#000000;fill-opacity:1;stroke:none;stroke-width:0.264583"
       x="-121.19682"
       y="133.0433"
       id="text1091-3"
       transform="rotate(-90)"><tspan
         id="tspan1089-6"
         style="stroke-width:0.264583"
         x="-121.19682"
         y="133.0433"
         sodipodi:role="line">Conductor</tspan></text>
    <text
       xml:space="preserve"
       style="font-style:normal;font-weight:normal;font-size:10.5833px;line-height:1.25;font-family:sans-serif;fill:#000000;fill-opacity:1;stroke:none;stroke-width:0.264583"
       x="179.46025"
       y="83.431923"
       id="text1122"><tspan
         sodipodi:role="line"
         id="tspan1120"
         style="stroke-width:0.264583"
         x="179.46025"
         y="83.431923">Sustrato</tspan></text>
    <path
       style="fill:none;stroke:#000000;stroke-width:0.296308px;stroke-linecap:butt;stroke-linejoin:miter;stroke-opacity:1"
       d="m 139.14815,147 c 0,3 0,3 0,3"
       id="path2407-5"
       inkscape:path-effect="#path-effect2447-0"
       inkscape:original-d="m 139.14815,147 c 0,3 0,3 0,3"
       transform="matrix(1,0,0,0.16666667,28.800004,42.5)" />
    <path
       id="infoline-on-start-0-path-effect2447-8"
       class="path2407 path-effect2447 measure-helper-line measure-line"
       d="m 167.40347,67.000001 h 2.38125"
       sodipodi:insensitive="true"
       inkscape:label="dinhelpline"
       style="stroke:#000000;stroke-width:0.25;stroke-opacity:1" />
    <text
       xml:space="preserve"
       id="text-on-0-path-effect2447-0"
       class="path2407-5 path-effect2447-0 measure-label"
       sodipodi:insensitive="true"
       x="163.35927"
       y="67.25"
       style="font-family:Sans;font-weight:normal;font-style:normal;font-stretch:normal;font-variant:normal;fill:#000000;fill-opacity:1;font-size:3.52778px"><tspan
         sodipodi:role="line"
         id="tspan12175">g</tspan></text>
    <path
       id="infoline-on-end-0-path-effect2447-0"
       class="path2407 path-effect2447 measure-helper-line measure-line"
       d="m 166.94815,67.5 h 23"
       sodipodi:insensitive="true"
       inkscape:label="dinhelpline"
       style="stroke-width:0.25;stroke:#000000;stroke-opacity:1" />
    <path
       id="infoline-0-path-effect2447-3"
       class="path2407 path-effect2447 measure-DIM-line measure-line"
       d="m 169.25556,67.000001 v 0.549561 m 0,1.900878 v 0.549561"
       sodipodi:insensitive="true"
       inkscape:label="dinline"
       style="display:none;stroke:#000000;stroke-width:0.25;stroke-opacity:1;marker-start:url(#ArrowDINout-start-8);marker-end:url(#ArrowDINout-end-1)" />
  </g>
  <path
     id="infoline-on-start-0-path-effect2409"
     class="path2395 path-effect2409 measure-helper-line measure-line"
     d="m 137.13226,30 h 9"
     sodipodi:insensitive="true"
     inkscape:label="dinhelpline"
     style="stroke-width:0.25;stroke:#000000;stroke-opacity:1" />
  <text
     xml:space="preserve"
     id="text-on-0-path-effect2409"
     class="path2395 path-effect2409 measure-label"
     sodipodi:insensitive="true"
     x="148.3849"
     y="80"
     style="font-family:Sans;font-weight:normal;font-style:normal;font-stretch:normal;font-variant:normal;fill:#000000;fill-opacity:1;font-size:3.52778px"><tspan
       sodipodi:role="line"
       id="tspan2419">l</tspan></text>
  <path
     id="infoline-on-end-0-path-effect2409"
     class="path2395 path-effect2409 measure-helper-line measure-line"
     d="m 137.13226,130 h 9"
     sodipodi:insensitive="true"
     inkscape:label="dinhelpline"
     style="stroke-width:0.25;stroke:#000000;stroke-opacity:1" />
  <path
     id="infoline-0-path-effect2409"
     class="path2395 path-effect2409 measure-DIM-line measure-line"
     d="m 144.13226,32 v 96"
     sodipodi:insensitive="true"
     inkscape:label="dinline"
     style="marker-start:url(#ArrowDIN-start);marker-end:url(#ArrowDIN-end);stroke-width:0.25;stroke:#000000;stroke-opacity:1" />
  <path
     id="infoline-on-start-0-path-effect2431"
     class="path2393 path-effect2431 measure-helper-line measure-line"
     d="m 167.93264,70 h 7"
     sodipodi:insensitive="true"
     inkscape:label="dinhelpline"
     style="stroke-width:0.25;stroke:#000000;stroke-opacity:1" />
  <text
     xml:space="preserve"
     id="text-on-0-path-effect2431"
     class="path2393 path-effect2431 measure-label"
     sodipodi:insensitive="true"
     x="164.6065"
     y="79.999834"
     style="font-family:Sans;font-weight:normal;font-style:normal;font-stretch:normal;font-variant:normal;fill:#000000;fill-opacity:1;font-size:3.52778px"
     transform="rotate(-90,165.34375,79.999834)"><tspan
       sodipodi:role="line"
       id="tspan2435">s</tspan></text>
  <path
     id="infoline-on-end-0-path-effect2431"
     class="path2393 path-effect2431 measure-helper-line measure-line"
     d="m 167.93264,89.999669 h 7"
     sodipodi:insensitive="true"
     inkscape:label="dinhelpline"
     style="stroke-width:0.25;stroke:#000000;stroke-opacity:1" />
  <path
     id="infoline-0-path-effect2431"
     class="path2393 path-effect2431 measure-DIM-line measure-line"
     d="M 172.93264,72 V 87.999669"
     sodipodi:insensitive="true"
     inkscape:label="dinline"
     style="marker-start:url(#ArrowDIN-start);marker-end:url(#ArrowDIN-end);stroke-width:0.25;stroke:#000000;stroke-opacity:1" />
  <path
     id="infoline-on-start-0-path-effect2439"
     class="path2399 path-effect2439 measure-helper-line measure-line"
     d="m 190,67.134125 v -10"
     sodipodi:insensitive="true"
     inkscape:label="dinhelpline"
     style="stroke-width:0.25;stroke:#000000;stroke-opacity:1" />
  <text
     xml:space="preserve"
     id="text-on-0-path-effect2439"
     class="path2399 path-effect2439 measure-label"
     sodipodi:insensitive="true"
     x="210.18523"
     y="57.545236"
     style="font-family:Sans;font-weight:normal;font-style:normal;font-stretch:normal;font-variant:normal;fill:#000000;fill-opacity:1;font-size:3.52778px"><tspan
       sodipodi:role="line"
       id="tspan2443">a</tspan></text>
  <path
     id="infoline-on-end-0-path-effect2439"
     class="path2399 path-effect2439 measure-helper-line measure-line"
     d="m 232,67.134125 v -10"
     sodipodi:insensitive="true"
     inkscape:label="dinhelpline"
     style="stroke-width:0.25;stroke:#000000;stroke-opacity:1" />
  <path
     id="infoline-0-path-effect2439"
     class="path2399 path-effect2439 measure-DIM-line measure-line"
     d="m 192,59.134125 h 38"
     sodipodi:insensitive="true"
     inkscape:label="dinline"
     style="marker-start:url(#ArrowDIN-start);marker-end:url(#ArrowDIN-end);stroke-width:0.25;stroke:#000000;stroke-opacity:1" />
  <path
     id="infoline-on-start-0-path-effect2447"
     class="path2407 path-effect2447 measure-helper-line measure-line"
     d="m 246.85185,67 h 9"
     sodipodi:insensitive="true"
     inkscape:label="dinhelpline"
     style="stroke-width:0.25;stroke:#000000;stroke-opacity:1" />
  <text
     xml:space="preserve"
     id="text-on-0-path-effect2447"
     class="path2407 path-effect2447 measure-label"
     sodipodi:insensitive="true"
     x="262.45509"
     y="68.5"
     style="font-family:Sans;font-weight:normal;font-style:normal;font-stretch:normal;font-variant:normal;fill:#000000;fill-opacity:1;font-size:3.52778px"
     transform="rotate(-90,263.26296,68.5)"><tspan
       sodipodi:role="line"
       id="tspan2451">h</tspan></text>
  <path
     id="infoline-on-end-0-path-effect2447"
     class="path2407 path-effect2447 measure-helper-line measure-line"
     d="m 246.85185,70 h 9"
     sodipodi:insensitive="true"
     inkscape:label="dinhelpline"
     style="stroke-width:0.25;stroke:#000000;stroke-opacity:1" />
  <path
     id="infoline-0-path-effect2447"
     class="path2407 path-effect2447 measure-DIM-line measure-line"
     d="m 253.85185,67 v 3"
     sodipodi:insensitive="true"
     inkscape:label="dinline"
     style="display:none;marker-start:url(#ArrowDINout-start);marker-end:url(#ArrowDINout-end);stroke-width:0.25;stroke:#000000;stroke-opacity:1" />
  <path
     id="infoline-on-start-0-path-effect2455"
     class="path2405 path-effect2455 measure-helper-line measure-line"
     d="m 122,30.137525 v -9"
     sodipodi:insensitive="true"
     inkscape:label="dinhelpline"
     style="stroke-width:0.25;stroke:#000000;stroke-opacity:1" />
  <text
     xml:space="preserve"
     id="text-on-0-path-effect2455"
     class="path2405 path-effect2455 measure-label"
     sodipodi:insensitive="true"
     x="128.2055"
     y="21.548636"
     style="font-family:Sans;font-weight:normal;font-style:normal;font-stretch:normal;font-variant:normal;fill:#000000;fill-opacity:1;font-size:3.52778px"><tspan
       sodipodi:role="line"
       id="tspan2459">w</tspan></text>
  <path
     id="infoline-on-end-0-path-effect2455"
     class="path2405 path-effect2455 measure-helper-line measure-line"
     d="m 137,30.137525 v -9"
     sodipodi:insensitive="true"
     inkscape:label="dinhelpline"
     style="stroke-width:0.25;stroke:#000000;stroke-opacity:1" />
  <path
     id="infoline-0-path-effect2455"
     class="path2405 path-effect2455 measure-DIM-line measure-line"
     d="m 122,23.137525 h 15"
     sodipodi:insensitive="true"
     inkscape:label="dinline"
     style="marker-start:url(#ArrowDINout-start);marker-end:url(#ArrowDINout-end);stroke-width:0.25;stroke:#000000;stroke-opacity:1" />
  <path
     id="infoline-on-start-0-path-effect2463"
     class="path2403 path-effect2463 measure-helper-line measure-line"
     d="m 65,30.14297 v -9"
     sodipodi:insensitive="true"
     inkscape:label="dinhelpline"
     style="stroke-width:0.25;stroke:#000000;stroke-opacity:1" />
  <text
     xml:space="preserve"
     id="text-on-0-path-effect2463"
     class="path2403 path-effect2463 measure-label"
     sodipodi:insensitive="true"
     x="71.205505"
     y="21.554081"
     style="font-family:Sans;font-weight:normal;font-style:normal;font-stretch:normal;font-variant:normal;fill:#000000;fill-opacity:1;font-size:3.52778px"><tspan
       sodipodi:role="line"
       id="tspan2467">w</tspan></text>
  <path
     id="infoline-on-end-0-path-effect2463"
     class="path2403 path-effect2463 measure-helper-line measure-line"
     d="m 80,30.14297 v -9"
     sodipodi:insensitive="true"
     inkscape:label="dinhelpline"
     style="stroke-width:0.25;stroke:#000000;stroke-opacity:1" />
  <path
     id="infoline-0-path-effect2463"
     class="path2403 path-effect2463 measure-DIM-line measure-line"
     d="M 65,23.14297 H 80"
     sodipodi:insensitive="true"
     inkscape:label="dinline"
     style="marker-start:url(#ArrowDINout-start);marker-end:url(#ArrowDINout-end);stroke-width:0.25;stroke:#000000;stroke-opacity:1" />
  <path
     id="infoline-on-start-0-path-effect2447-0"
     class="path2407-5 path-effect2447-0 measure-helper-line measure-line"
     d="m 166.94815,67 h 23"
     sodipodi:insensitive="true"
     inkscape:label="dinhelpline"
     style="stroke-width:0.25;stroke:#000000;stroke-opacity:1" />
  <path
     id="infoline-0-path-effect2447-0"
     class="path2407-5 path-effect2447-0 measure-DIM-line measure-line"
     d="m 172.94815,67 v 0.5"
     sodipodi:insensitive="true"
     inkscape:label="dinline"
     style="display:none;marker-start:url(#ArrowDINout-start);marker-end:url(#ArrowDINout-end);stroke-width:0.25;stroke:#000000;stroke-opacity:1" />
</svg>
